%YAML 1.1
%TAG !u! tag:unity3d.com,2011:
--- !u!29 &1
OcclusionCullingSettings:
  m_ObjectHideFlags: 0
  serializedVersion: 2
  m_OcclusionBakeSettings:
    smallestOccluder: 5
    smallestHole: 0.25
    backfaceThreshold: 100
  m_SceneGUID: 00000000000000000000000000000000
  m_OcclusionCullingData: {fileID: 0}
--- !u!104 &2
RenderSettings:
  m_ObjectHideFlags: 0
  serializedVersion: 9
  m_Fog: 0
  m_FogColor: {r: 0.5, g: 0.5, b: 0.5, a: 1}
  m_FogMode: 3
  m_FogDensity: 0.01
  m_LinearFogStart: 0
  m_LinearFogEnd: 300
  m_AmbientSkyColor: {r: 0.212, g: 0.227, b: 0.259, a: 1}
  m_AmbientEquatorColor: {r: 0.114, g: 0.125, b: 0.133, a: 1}
  m_AmbientGroundColor: {r: 0.047, g: 0.043, b: 0.035, a: 1}
  m_AmbientIntensity: 1
  m_AmbientMode: 0
  m_SubtractiveShadowColor: {r: 0.42, g: 0.478, b: 0.627, a: 1}
  m_SkyboxMaterial: {fileID: 10304, guid: 0000000000000000f000000000000000, type: 0}
  m_HaloStrength: 0.5
  m_FlareStrength: 1
  m_FlareFadeSpeed: 3
  m_HaloTexture: {fileID: 0}
  m_SpotCookie: {fileID: 10001, guid: 0000000000000000e000000000000000, type: 0}
  m_DefaultReflectionMode: 0
  m_DefaultReflectionResolution: 128
  m_ReflectionBounces: 1
  m_ReflectionIntensity: 1
  m_CustomReflection: {fileID: 0}
  m_Sun: {fileID: 0}
  m_IndirectSpecularColor: {r: 0.37311915, g: 0.3807396, b: 0.35872662, a: 1}
  m_UseRadianceAmbientProbe: 0
--- !u!157 &3
LightmapSettings:
  m_ObjectHideFlags: 0
  serializedVersion: 12
  m_GIWorkflowMode: 1
  m_GISettings:
    serializedVersion: 2
    m_BounceScale: 1
    m_IndirectOutputScale: 1
    m_AlbedoBoost: 1
    m_EnvironmentLightingMode: 0
    m_EnableBakedLightmaps: 1
    m_EnableRealtimeLightmaps: 0
  m_LightmapEditorSettings:
    serializedVersion: 12
    m_Resolution: 2
    m_BakeResolution: 40
    m_AtlasSize: 1024
    m_AO: 0
    m_AOMaxDistance: 1
    m_CompAOExponent: 1
    m_CompAOExponentDirect: 0
    m_ExtractAmbientOcclusion: 0
    m_Padding: 2
    m_LightmapParameters: {fileID: 0}
    m_LightmapsBakeMode: 1
    m_TextureCompression: 1
    m_FinalGather: 0
    m_FinalGatherFiltering: 1
    m_FinalGatherRayCount: 256
    m_ReflectionCompression: 2
    m_MixedBakeMode: 2
    m_BakeBackend: 1
    m_PVRSampling: 1
    m_PVRDirectSampleCount: 32
    m_PVRSampleCount: 512
    m_PVRBounces: 2
    m_PVREnvironmentSampleCount: 256
    m_PVREnvironmentReferencePointCount: 2048
    m_PVRFilteringMode: 1
    m_PVRDenoiserTypeDirect: 1
    m_PVRDenoiserTypeIndirect: 1
    m_PVRDenoiserTypeAO: 1
    m_PVRFilterTypeDirect: 0
    m_PVRFilterTypeIndirect: 0
    m_PVRFilterTypeAO: 0
    m_PVREnvironmentMIS: 1
    m_PVRCulling: 1
    m_PVRFilteringGaussRadiusDirect: 1
    m_PVRFilteringGaussRadiusIndirect: 5
    m_PVRFilteringGaussRadiusAO: 2
    m_PVRFilteringAtrousPositionSigmaDirect: 0.5
    m_PVRFilteringAtrousPositionSigmaIndirect: 2
    m_PVRFilteringAtrousPositionSigmaAO: 1
    m_ExportTrainingData: 0
    m_TrainingDataDestination: TrainingData
    m_LightProbeSampleCountMultiplier: 4
  m_LightingDataAsset: {fileID: 0}
  m_LightingSettings: {fileID: 0}
--- !u!196 &4
NavMeshSettings:
  serializedVersion: 2
  m_ObjectHideFlags: 0
  m_BuildSettings:
    serializedVersion: 2
    agentTypeID: 0
    agentRadius: 0.5
    agentHeight: 2
    agentSlope: 45
    agentClimb: 0.4
    ledgeDropHeight: 0
    maxJumpAcrossDistance: 0
    minRegionArea: 2
    manualCellSize: 0
    cellSize: 0.16666667
    manualTileSize: 0
    tileSize: 256
    accuratePlacement: 0
    maxJobWorkers: 0
    preserveTilesOutsideBounds: 0
    debug:
      m_Flags: 0
  m_NavMeshData: {fileID: 0}
--- !u!1 &1837763443 stripped
GameObject:
  m_CorrespondingSourceObject: {fileID: 8670811089730317270, guid: 73927c31e85a743658514bafed0add2d, type: 3}
  m_PrefabInstance: {fileID: 8670811091383525541}
  m_PrefabAsset: {fileID: 0}
--- !u!1001 &7192281362151379161
PrefabInstance:
  m_ObjectHideFlags: 0
  serializedVersion: 2
  m_Modification:
    m_TransformParent: {fileID: 0}
    m_Modifications:
    - target: {fileID: 273978050297324925, guid: 158fa6c4eba9248bcb5da0f371eae3cb, type: 3}
      propertyPath: m_AnchorMax.y
      value: 0
      objectReference: {fileID: 0}
    - target: {fileID: 273978050297324925, guid: 158fa6c4eba9248bcb5da0f371eae3cb, type: 3}
      propertyPath: m_AnchorMin.y
      value: 0
      objectReference: {fileID: 0}
    - target: {fileID: 273978050297324925, guid: 158fa6c4eba9248bcb5da0f371eae3cb, type: 3}
      propertyPath: m_SizeDelta.x
      value: 0
      objectReference: {fileID: 0}
    - target: {fileID: 273978050297324925, guid: 158fa6c4eba9248bcb5da0f371eae3cb, type: 3}
      propertyPath: m_SizeDelta.y
      value: 0
      objectReference: {fileID: 0}
    - target: {fileID: 273978050297324925, guid: 158fa6c4eba9248bcb5da0f371eae3cb, type: 3}
      propertyPath: m_AnchoredPosition.x
      value: 0
      objectReference: {fileID: 0}
    - target: {fileID: 273978050297324925, guid: 158fa6c4eba9248bcb5da0f371eae3cb, type: 3}
      propertyPath: m_AnchoredPosition.y
      value: 0
      objectReference: {fileID: 0}
    - target: {fileID: 364376463372908856, guid: 158fa6c4eba9248bcb5da0f371eae3cb, type: 3}
      propertyPath: m_AnchorMax.y
      value: 0
      objectReference: {fileID: 0}
    - target: {fileID: 364376463372908856, guid: 158fa6c4eba9248bcb5da0f371eae3cb, type: 3}
      propertyPath: m_AnchorMin.y
      value: 0
      objectReference: {fileID: 0}
    - target: {fileID: 364376463372908856, guid: 158fa6c4eba9248bcb5da0f371eae3cb, type: 3}
      propertyPath: m_SizeDelta.x
      value: 0
      objectReference: {fileID: 0}
    - target: {fileID: 364376463372908856, guid: 158fa6c4eba9248bcb5da0f371eae3cb, type: 3}
      propertyPath: m_SizeDelta.y
      value: 0
      objectReference: {fileID: 0}
    - target: {fileID: 364376463372908856, guid: 158fa6c4eba9248bcb5da0f371eae3cb, type: 3}
      propertyPath: m_AnchoredPosition.x
      value: 0
      objectReference: {fileID: 0}
    - target: {fileID: 364376463372908856, guid: 158fa6c4eba9248bcb5da0f371eae3cb, type: 3}
      propertyPath: m_AnchoredPosition.y
      value: 0
      objectReference: {fileID: 0}
    - target: {fileID: 591595235588423485, guid: 158fa6c4eba9248bcb5da0f371eae3cb, type: 3}
      propertyPath: m_AnchorMax.x
      value: 0
      objectReference: {fileID: 0}
    - target: {fileID: 591595235588423485, guid: 158fa6c4eba9248bcb5da0f371eae3cb, type: 3}
      propertyPath: m_AnchorMax.y
      value: 0
      objectReference: {fileID: 0}
    - target: {fileID: 591595235588423485, guid: 158fa6c4eba9248bcb5da0f371eae3cb, type: 3}
      propertyPath: m_AnchorMin.y
      value: 0
      objectReference: {fileID: 0}
    - target: {fileID: 846435243251224284, guid: 158fa6c4eba9248bcb5da0f371eae3cb, type: 3}
      propertyPath: m_AnchorMax.y
      value: 0
      objectReference: {fileID: 0}
    - target: {fileID: 846435243251224284, guid: 158fa6c4eba9248bcb5da0f371eae3cb, type: 3}
      propertyPath: m_AnchorMin.y
      value: 0
      objectReference: {fileID: 0}
    - target: {fileID: 846435243251224284, guid: 158fa6c4eba9248bcb5da0f371eae3cb, type: 3}
      propertyPath: m_SizeDelta.x
      value: 0
      objectReference: {fileID: 0}
    - target: {fileID: 846435243251224284, guid: 158fa6c4eba9248bcb5da0f371eae3cb, type: 3}
      propertyPath: m_SizeDelta.y
      value: 0
      objectReference: {fileID: 0}
    - target: {fileID: 846435243251224284, guid: 158fa6c4eba9248bcb5da0f371eae3cb, type: 3}
      propertyPath: m_AnchoredPosition.x
      value: 0
      objectReference: {fileID: 0}
    - target: {fileID: 846435243251224284, guid: 158fa6c4eba9248bcb5da0f371eae3cb, type: 3}
      propertyPath: m_AnchoredPosition.y
      value: 0
      objectReference: {fileID: 0}
    - target: {fileID: 891307667908233549, guid: 158fa6c4eba9248bcb5da0f371eae3cb, type: 3}
      propertyPath: m_SizeDelta.y
      value: 0
      objectReference: {fileID: 0}
    - target: {fileID: 1187133958573124020, guid: 158fa6c4eba9248bcb5da0f371eae3cb, type: 3}
      propertyPath: m_SizeDelta.x
      value: 0
      objectReference: {fileID: 0}
    - target: {fileID: 1187133958573124020, guid: 158fa6c4eba9248bcb5da0f371eae3cb, type: 3}
      propertyPath: m_SizeDelta.y
      value: 0
      objectReference: {fileID: 0}
    - target: {fileID: 1258964384939953883, guid: 158fa6c4eba9248bcb5da0f371eae3cb, type: 3}
      propertyPath: m_AnchorMax.y
      value: 0
      objectReference: {fileID: 0}
    - target: {fileID: 1258964384939953883, guid: 158fa6c4eba9248bcb5da0f371eae3cb, type: 3}
      propertyPath: m_AnchorMin.y
      value: 0
      objectReference: {fileID: 0}
    - target: {fileID: 1258964384939953883, guid: 158fa6c4eba9248bcb5da0f371eae3cb, type: 3}
      propertyPath: m_AnchoredPosition.x
      value: 0
      objectReference: {fileID: 0}
    - target: {fileID: 1258964384939953883, guid: 158fa6c4eba9248bcb5da0f371eae3cb, type: 3}
      propertyPath: m_AnchoredPosition.y
      value: 0
      objectReference: {fileID: 0}
    - target: {fileID: 1333597562133538080, guid: 158fa6c4eba9248bcb5da0f371eae3cb, type: 3}
      propertyPath: m_AnchorMax.y
      value: 0
      objectReference: {fileID: 0}
    - target: {fileID: 1333597562133538080, guid: 158fa6c4eba9248bcb5da0f371eae3cb, type: 3}
      propertyPath: m_AnchorMin.y
      value: 0
      objectReference: {fileID: 0}
    - target: {fileID: 1333597562133538080, guid: 158fa6c4eba9248bcb5da0f371eae3cb, type: 3}
      propertyPath: m_SizeDelta.x
      value: 0
      objectReference: {fileID: 0}
    - target: {fileID: 1333597562133538080, guid: 158fa6c4eba9248bcb5da0f371eae3cb, type: 3}
      propertyPath: m_SizeDelta.y
      value: 0
      objectReference: {fileID: 0}
    - target: {fileID: 1333597562133538080, guid: 158fa6c4eba9248bcb5da0f371eae3cb, type: 3}
      propertyPath: m_AnchoredPosition.x
      value: 0
      objectReference: {fileID: 0}
    - target: {fileID: 1333597562133538080, guid: 158fa6c4eba9248bcb5da0f371eae3cb, type: 3}
      propertyPath: m_AnchoredPosition.y
      value: 0
      objectReference: {fileID: 0}
    - target: {fileID: 1487165275626584637, guid: 158fa6c4eba9248bcb5da0f371eae3cb, type: 3}
      propertyPath: m_AnchorMax.y
      value: 0
      objectReference: {fileID: 0}
    - target: {fileID: 1487165275626584637, guid: 158fa6c4eba9248bcb5da0f371eae3cb, type: 3}
      propertyPath: m_AnchorMin.y
      value: 0
      objectReference: {fileID: 0}
    - target: {fileID: 1487165275626584637, guid: 158fa6c4eba9248bcb5da0f371eae3cb, type: 3}
      propertyPath: m_SizeDelta.x
      value: 0
      objectReference: {fileID: 0}
    - target: {fileID: 1487165275626584637, guid: 158fa6c4eba9248bcb5da0f371eae3cb, type: 3}
      propertyPath: m_SizeDelta.y
      value: 0
      objectReference: {fileID: 0}
    - target: {fileID: 1487165275626584637, guid: 158fa6c4eba9248bcb5da0f371eae3cb, type: 3}
      propertyPath: m_AnchoredPosition.x
      value: 0
      objectReference: {fileID: 0}
    - target: {fileID: 1487165275626584637, guid: 158fa6c4eba9248bcb5da0f371eae3cb, type: 3}
      propertyPath: m_AnchoredPosition.y
      value: 0
      objectReference: {fileID: 0}
    - target: {fileID: 1508666719066012953, guid: 158fa6c4eba9248bcb5da0f371eae3cb, type: 3}
      propertyPath: m_AnchorMax.y
      value: 0
      objectReference: {fileID: 0}
    - target: {fileID: 1508666719066012953, guid: 158fa6c4eba9248bcb5da0f371eae3cb, type: 3}
      propertyPath: m_AnchorMin.y
      value: 0
      objectReference: {fileID: 0}
    - target: {fileID: 1508666719066012953, guid: 158fa6c4eba9248bcb5da0f371eae3cb, type: 3}
      propertyPath: m_SizeDelta.x
      value: 0
      objectReference: {fileID: 0}
    - target: {fileID: 1508666719066012953, guid: 158fa6c4eba9248bcb5da0f371eae3cb, type: 3}
      propertyPath: m_SizeDelta.y
      value: 0
      objectReference: {fileID: 0}
    - target: {fileID: 1508666719066012953, guid: 158fa6c4eba9248bcb5da0f371eae3cb, type: 3}
      propertyPath: m_AnchoredPosition.x
      value: 0
      objectReference: {fileID: 0}
    - target: {fileID: 1508666719066012953, guid: 158fa6c4eba9248bcb5da0f371eae3cb, type: 3}
      propertyPath: m_AnchoredPosition.y
      value: 0
      objectReference: {fileID: 0}
    - target: {fileID: 1514103299793605279, guid: 158fa6c4eba9248bcb5da0f371eae3cb, type: 3}
      propertyPath: m_AnchorMax.y
      value: 0
      objectReference: {fileID: 0}
    - target: {fileID: 1514103299793605279, guid: 158fa6c4eba9248bcb5da0f371eae3cb, type: 3}
      propertyPath: m_AnchorMin.y
      value: 0
      objectReference: {fileID: 0}
    - target: {fileID: 1514103299793605279, guid: 158fa6c4eba9248bcb5da0f371eae3cb, type: 3}
      propertyPath: m_SizeDelta.x
      value: 0
      objectReference: {fileID: 0}
    - target: {fileID: 1514103299793605279, guid: 158fa6c4eba9248bcb5da0f371eae3cb, type: 3}
      propertyPath: m_SizeDelta.y
      value: 0
      objectReference: {fileID: 0}
    - target: {fileID: 1514103299793605279, guid: 158fa6c4eba9248bcb5da0f371eae3cb, type: 3}
      propertyPath: m_AnchoredPosition.x
      value: 0
      objectReference: {fileID: 0}
    - target: {fileID: 1514103299793605279, guid: 158fa6c4eba9248bcb5da0f371eae3cb, type: 3}
      propertyPath: m_AnchoredPosition.y
      value: 0
      objectReference: {fileID: 0}
    - target: {fileID: 1517657909954610140, guid: 158fa6c4eba9248bcb5da0f371eae3cb, type: 3}
      propertyPath: m_AnchorMax.y
      value: 0
      objectReference: {fileID: 0}
    - target: {fileID: 1517657909954610140, guid: 158fa6c4eba9248bcb5da0f371eae3cb, type: 3}
      propertyPath: m_AnchorMin.y
      value: 0
      objectReference: {fileID: 0}
    - target: {fileID: 1517657909954610140, guid: 158fa6c4eba9248bcb5da0f371eae3cb, type: 3}
      propertyPath: m_SizeDelta.x
      value: 0
      objectReference: {fileID: 0}
    - target: {fileID: 1517657909954610140, guid: 158fa6c4eba9248bcb5da0f371eae3cb, type: 3}
      propertyPath: m_SizeDelta.y
      value: 0
      objectReference: {fileID: 0}
    - target: {fileID: 1517657909954610140, guid: 158fa6c4eba9248bcb5da0f371eae3cb, type: 3}
      propertyPath: m_AnchoredPosition.x
      value: 0
      objectReference: {fileID: 0}
    - target: {fileID: 1517657909954610140, guid: 158fa6c4eba9248bcb5da0f371eae3cb, type: 3}
      propertyPath: m_AnchoredPosition.y
      value: 0
      objectReference: {fileID: 0}
    - target: {fileID: 1632240616835862796, guid: 158fa6c4eba9248bcb5da0f371eae3cb, type: 3}
      propertyPath: m_AnchorMax.y
      value: 0
      objectReference: {fileID: 0}
    - target: {fileID: 1632240616835862796, guid: 158fa6c4eba9248bcb5da0f371eae3cb, type: 3}
      propertyPath: m_AnchorMin.y
      value: 0
      objectReference: {fileID: 0}
    - target: {fileID: 1632240616835862796, guid: 158fa6c4eba9248bcb5da0f371eae3cb, type: 3}
      propertyPath: m_SizeDelta.x
      value: 0
      objectReference: {fileID: 0}
    - target: {fileID: 1632240616835862796, guid: 158fa6c4eba9248bcb5da0f371eae3cb, type: 3}
      propertyPath: m_AnchoredPosition.x
      value: 0
      objectReference: {fileID: 0}
    - target: {fileID: 1632240616835862796, guid: 158fa6c4eba9248bcb5da0f371eae3cb, type: 3}
      propertyPath: m_AnchoredPosition.y
      value: 0
      objectReference: {fileID: 0}
    - target: {fileID: 1892620446215619532, guid: 158fa6c4eba9248bcb5da0f371eae3cb, type: 3}
      propertyPath: m_AnchorMax.y
      value: 0
      objectReference: {fileID: 0}
    - target: {fileID: 1892620446215619532, guid: 158fa6c4eba9248bcb5da0f371eae3cb, type: 3}
      propertyPath: m_AnchorMin.y
      value: 0
      objectReference: {fileID: 0}
    - target: {fileID: 1892620446215619532, guid: 158fa6c4eba9248bcb5da0f371eae3cb, type: 3}
      propertyPath: m_SizeDelta.x
      value: 0
      objectReference: {fileID: 0}
    - target: {fileID: 1892620446215619532, guid: 158fa6c4eba9248bcb5da0f371eae3cb, type: 3}
      propertyPath: m_AnchoredPosition.x
      value: 0
      objectReference: {fileID: 0}
    - target: {fileID: 1892620446215619532, guid: 158fa6c4eba9248bcb5da0f371eae3cb, type: 3}
      propertyPath: m_AnchoredPosition.y
      value: 0
      objectReference: {fileID: 0}
    - target: {fileID: 2000195441403553990, guid: 158fa6c4eba9248bcb5da0f371eae3cb, type: 3}
      propertyPath: m_AnchorMax.y
      value: 0
      objectReference: {fileID: 0}
    - target: {fileID: 2000195441403553990, guid: 158fa6c4eba9248bcb5da0f371eae3cb, type: 3}
      propertyPath: m_AnchorMin.y
      value: 0
      objectReference: {fileID: 0}
    - target: {fileID: 2000195441403553990, guid: 158fa6c4eba9248bcb5da0f371eae3cb, type: 3}
      propertyPath: m_SizeDelta.x
      value: 0
      objectReference: {fileID: 0}
    - target: {fileID: 2000195441403553990, guid: 158fa6c4eba9248bcb5da0f371eae3cb, type: 3}
      propertyPath: m_SizeDelta.y
      value: 0
      objectReference: {fileID: 0}
    - target: {fileID: 2000195441403553990, guid: 158fa6c4eba9248bcb5da0f371eae3cb, type: 3}
      propertyPath: m_AnchoredPosition.x
      value: 0
      objectReference: {fileID: 0}
    - target: {fileID: 2000195441403553990, guid: 158fa6c4eba9248bcb5da0f371eae3cb, type: 3}
      propertyPath: m_AnchoredPosition.y
      value: 0
      objectReference: {fileID: 0}
    - target: {fileID: 2000195441516145189, guid: 158fa6c4eba9248bcb5da0f371eae3cb, type: 3}
      propertyPath: m_AnchorMax.y
      value: 0
      objectReference: {fileID: 0}
    - target: {fileID: 2000195441516145189, guid: 158fa6c4eba9248bcb5da0f371eae3cb, type: 3}
      propertyPath: m_AnchorMin.y
      value: 0
      objectReference: {fileID: 0}
    - target: {fileID: 2000195441516145189, guid: 158fa6c4eba9248bcb5da0f371eae3cb, type: 3}
      propertyPath: m_SizeDelta.x
      value: 0
      objectReference: {fileID: 0}
    - target: {fileID: 2000195441516145189, guid: 158fa6c4eba9248bcb5da0f371eae3cb, type: 3}
      propertyPath: m_SizeDelta.y
      value: 0
      objectReference: {fileID: 0}
    - target: {fileID: 2000195441516145189, guid: 158fa6c4eba9248bcb5da0f371eae3cb, type: 3}
      propertyPath: m_AnchoredPosition.x
      value: 0
      objectReference: {fileID: 0}
    - target: {fileID: 2000195441516145189, guid: 158fa6c4eba9248bcb5da0f371eae3cb, type: 3}
      propertyPath: m_AnchoredPosition.y
      value: 0
      objectReference: {fileID: 0}
    - target: {fileID: 2000195441552668271, guid: 158fa6c4eba9248bcb5da0f371eae3cb, type: 3}
      propertyPath: m_AnchorMax.y
      value: 0
      objectReference: {fileID: 0}
    - target: {fileID: 2000195441552668271, guid: 158fa6c4eba9248bcb5da0f371eae3cb, type: 3}
      propertyPath: m_AnchorMin.y
      value: 0
      objectReference: {fileID: 0}
    - target: {fileID: 2000195441552668271, guid: 158fa6c4eba9248bcb5da0f371eae3cb, type: 3}
      propertyPath: m_SizeDelta.x
      value: 0
      objectReference: {fileID: 0}
    - target: {fileID: 2000195441552668271, guid: 158fa6c4eba9248bcb5da0f371eae3cb, type: 3}
      propertyPath: m_SizeDelta.y
      value: 0
      objectReference: {fileID: 0}
    - target: {fileID: 2000195441552668271, guid: 158fa6c4eba9248bcb5da0f371eae3cb, type: 3}
      propertyPath: m_AnchoredPosition.x
      value: 0
      objectReference: {fileID: 0}
    - target: {fileID: 2000195441552668271, guid: 158fa6c4eba9248bcb5da0f371eae3cb, type: 3}
      propertyPath: m_AnchoredPosition.y
      value: 0
      objectReference: {fileID: 0}
    - target: {fileID: 2000195441558841710, guid: 158fa6c4eba9248bcb5da0f371eae3cb, type: 3}
      propertyPath: m_AnchorMax.y
      value: 0
      objectReference: {fileID: 0}
    - target: {fileID: 2000195441558841710, guid: 158fa6c4eba9248bcb5da0f371eae3cb, type: 3}
      propertyPath: m_AnchorMin.y
      value: 0
      objectReference: {fileID: 0}
    - target: {fileID: 2000195441558841710, guid: 158fa6c4eba9248bcb5da0f371eae3cb, type: 3}
      propertyPath: m_AnchoredPosition.x
      value: 0
      objectReference: {fileID: 0}
    - target: {fileID: 2000195442082854837, guid: 158fa6c4eba9248bcb5da0f371eae3cb, type: 3}
      propertyPath: m_AnchorMax.y
      value: 0
      objectReference: {fileID: 0}
    - target: {fileID: 2000195442082854837, guid: 158fa6c4eba9248bcb5da0f371eae3cb, type: 3}
      propertyPath: m_AnchorMin.y
      value: 0
      objectReference: {fileID: 0}
    - target: {fileID: 2000195442082854837, guid: 158fa6c4eba9248bcb5da0f371eae3cb, type: 3}
      propertyPath: m_SizeDelta.x
      value: 0
      objectReference: {fileID: 0}
    - target: {fileID: 2000195442082854837, guid: 158fa6c4eba9248bcb5da0f371eae3cb, type: 3}
      propertyPath: m_SizeDelta.y
      value: 0
      objectReference: {fileID: 0}
    - target: {fileID: 2000195442082854837, guid: 158fa6c4eba9248bcb5da0f371eae3cb, type: 3}
      propertyPath: m_AnchoredPosition.x
      value: 0
      objectReference: {fileID: 0}
    - target: {fileID: 2000195442082854837, guid: 158fa6c4eba9248bcb5da0f371eae3cb, type: 3}
      propertyPath: m_AnchoredPosition.y
      value: 0
      objectReference: {fileID: 0}
    - target: {fileID: 2000195442655202351, guid: 158fa6c4eba9248bcb5da0f371eae3cb, type: 3}
      propertyPath: m_SizeDelta.y
      value: 0
      objectReference: {fileID: 0}
    - target: {fileID: 2000195442826148858, guid: 158fa6c4eba9248bcb5da0f371eae3cb, type: 3}
      propertyPath: m_AnchorMax.y
      value: 0
      objectReference: {fileID: 0}
    - target: {fileID: 2000195442826148858, guid: 158fa6c4eba9248bcb5da0f371eae3cb, type: 3}
      propertyPath: m_AnchorMin.y
      value: 0
      objectReference: {fileID: 0}
    - target: {fileID: 2000195442826148858, guid: 158fa6c4eba9248bcb5da0f371eae3cb, type: 3}
      propertyPath: m_SizeDelta.x
      value: 0
      objectReference: {fileID: 0}
    - target: {fileID: 2000195442826148858, guid: 158fa6c4eba9248bcb5da0f371eae3cb, type: 3}
      propertyPath: m_AnchoredPosition.x
      value: 0
      objectReference: {fileID: 0}
    - target: {fileID: 2000195442826148858, guid: 158fa6c4eba9248bcb5da0f371eae3cb, type: 3}
      propertyPath: m_AnchoredPosition.y
      value: 0
      objectReference: {fileID: 0}
    - target: {fileID: 2000195443043577278, guid: 158fa6c4eba9248bcb5da0f371eae3cb, type: 3}
      propertyPath: m_AnchorMax.y
      value: 0
      objectReference: {fileID: 0}
    - target: {fileID: 2000195443043577278, guid: 158fa6c4eba9248bcb5da0f371eae3cb, type: 3}
      propertyPath: m_AnchorMin.y
      value: 0
      objectReference: {fileID: 0}
    - target: {fileID: 2000195443043577278, guid: 158fa6c4eba9248bcb5da0f371eae3cb, type: 3}
      propertyPath: m_SizeDelta.x
      value: 0
      objectReference: {fileID: 0}
    - target: {fileID: 2000195443043577278, guid: 158fa6c4eba9248bcb5da0f371eae3cb, type: 3}
      propertyPath: m_SizeDelta.y
      value: 0
      objectReference: {fileID: 0}
    - target: {fileID: 2000195443043577278, guid: 158fa6c4eba9248bcb5da0f371eae3cb, type: 3}
      propertyPath: m_AnchoredPosition.x
      value: 0
      objectReference: {fileID: 0}
    - target: {fileID: 2000195443043577278, guid: 158fa6c4eba9248bcb5da0f371eae3cb, type: 3}
      propertyPath: m_AnchoredPosition.y
      value: 0
      objectReference: {fileID: 0}
    - target: {fileID: 2057014196662618599, guid: 158fa6c4eba9248bcb5da0f371eae3cb, type: 3}
      propertyPath: m_SizeDelta.x
      value: 0
      objectReference: {fileID: 0}
    - target: {fileID: 2290252222083711085, guid: 158fa6c4eba9248bcb5da0f371eae3cb, type: 3}
      propertyPath: m_AnchorMax.y
      value: 0
      objectReference: {fileID: 0}
    - target: {fileID: 2290252222083711085, guid: 158fa6c4eba9248bcb5da0f371eae3cb, type: 3}
      propertyPath: m_AnchorMin.y
      value: 0
      objectReference: {fileID: 0}
    - target: {fileID: 2290252222083711085, guid: 158fa6c4eba9248bcb5da0f371eae3cb, type: 3}
      propertyPath: m_SizeDelta.x
      value: 0
      objectReference: {fileID: 0}
    - target: {fileID: 2290252222083711085, guid: 158fa6c4eba9248bcb5da0f371eae3cb, type: 3}
      propertyPath: m_SizeDelta.y
      value: 0
      objectReference: {fileID: 0}
    - target: {fileID: 2290252222083711085, guid: 158fa6c4eba9248bcb5da0f371eae3cb, type: 3}
      propertyPath: m_AnchoredPosition.x
      value: 0
      objectReference: {fileID: 0}
    - target: {fileID: 2290252222083711085, guid: 158fa6c4eba9248bcb5da0f371eae3cb, type: 3}
      propertyPath: m_AnchoredPosition.y
      value: 0
      objectReference: {fileID: 0}
    - target: {fileID: 2582427263123860587, guid: 158fa6c4eba9248bcb5da0f371eae3cb, type: 3}
      propertyPath: m_AnchorMax.y
      value: 0
      objectReference: {fileID: 0}
    - target: {fileID: 2582427263123860587, guid: 158fa6c4eba9248bcb5da0f371eae3cb, type: 3}
      propertyPath: m_AnchorMin.y
      value: 0
      objectReference: {fileID: 0}
    - target: {fileID: 2582427263123860587, guid: 158fa6c4eba9248bcb5da0f371eae3cb, type: 3}
      propertyPath: m_SizeDelta.x
      value: 0
      objectReference: {fileID: 0}
    - target: {fileID: 2582427263123860587, guid: 158fa6c4eba9248bcb5da0f371eae3cb, type: 3}
      propertyPath: m_SizeDelta.y
      value: 0
      objectReference: {fileID: 0}
    - target: {fileID: 2582427263123860587, guid: 158fa6c4eba9248bcb5da0f371eae3cb, type: 3}
      propertyPath: m_AnchoredPosition.x
      value: 0
      objectReference: {fileID: 0}
    - target: {fileID: 2582427263123860587, guid: 158fa6c4eba9248bcb5da0f371eae3cb, type: 3}
      propertyPath: m_AnchoredPosition.y
      value: 0
      objectReference: {fileID: 0}
    - target: {fileID: 2672116765519720494, guid: 158fa6c4eba9248bcb5da0f371eae3cb, type: 3}
      propertyPath: m_AnchorMax.y
      value: 0
      objectReference: {fileID: 0}
    - target: {fileID: 2672116765519720494, guid: 158fa6c4eba9248bcb5da0f371eae3cb, type: 3}
      propertyPath: m_AnchorMin.y
      value: 0
      objectReference: {fileID: 0}
    - target: {fileID: 2672116765519720494, guid: 158fa6c4eba9248bcb5da0f371eae3cb, type: 3}
      propertyPath: m_SizeDelta.x
      value: 0
      objectReference: {fileID: 0}
    - target: {fileID: 2672116765519720494, guid: 158fa6c4eba9248bcb5da0f371eae3cb, type: 3}
      propertyPath: m_SizeDelta.y
      value: 0
      objectReference: {fileID: 0}
    - target: {fileID: 2672116765519720494, guid: 158fa6c4eba9248bcb5da0f371eae3cb, type: 3}
      propertyPath: m_AnchoredPosition.x
      value: 0
      objectReference: {fileID: 0}
    - target: {fileID: 2672116765519720494, guid: 158fa6c4eba9248bcb5da0f371eae3cb, type: 3}
      propertyPath: m_AnchoredPosition.y
      value: 0
      objectReference: {fileID: 0}
    - target: {fileID: 2895259064042681899, guid: 158fa6c4eba9248bcb5da0f371eae3cb, type: 3}
      propertyPath: m_AnchorMax.x
      value: 0
      objectReference: {fileID: 0}
    - target: {fileID: 2895259064042681899, guid: 158fa6c4eba9248bcb5da0f371eae3cb, type: 3}
      propertyPath: m_AnchorMax.y
      value: 0
      objectReference: {fileID: 0}
    - target: {fileID: 2895259064042681899, guid: 158fa6c4eba9248bcb5da0f371eae3cb, type: 3}
      propertyPath: m_AnchorMin.y
      value: 0
      objectReference: {fileID: 0}
    - target: {fileID: 3144891475388368842, guid: 158fa6c4eba9248bcb5da0f371eae3cb, type: 3}
      propertyPath: m_AnchorMax.y
      value: 0
      objectReference: {fileID: 0}
    - target: {fileID: 3144891475388368842, guid: 158fa6c4eba9248bcb5da0f371eae3cb, type: 3}
      propertyPath: m_AnchorMin.y
      value: 0
      objectReference: {fileID: 0}
    - target: {fileID: 3144891475388368842, guid: 158fa6c4eba9248bcb5da0f371eae3cb, type: 3}
      propertyPath: m_SizeDelta.x
      value: 0
      objectReference: {fileID: 0}
    - target: {fileID: 3144891475388368842, guid: 158fa6c4eba9248bcb5da0f371eae3cb, type: 3}
      propertyPath: m_SizeDelta.y
      value: 0
      objectReference: {fileID: 0}
    - target: {fileID: 3144891475388368842, guid: 158fa6c4eba9248bcb5da0f371eae3cb, type: 3}
      propertyPath: m_AnchoredPosition.x
      value: 0
      objectReference: {fileID: 0}
    - target: {fileID: 3144891475388368842, guid: 158fa6c4eba9248bcb5da0f371eae3cb, type: 3}
      propertyPath: m_AnchoredPosition.y
      value: 0
      objectReference: {fileID: 0}
    - target: {fileID: 3190041561630064731, guid: 158fa6c4eba9248bcb5da0f371eae3cb, type: 3}
      propertyPath: m_SizeDelta.y
      value: 0
      objectReference: {fileID: 0}
    - target: {fileID: 3558827820166088653, guid: 158fa6c4eba9248bcb5da0f371eae3cb, type: 3}
      propertyPath: m_AnchorMax.y
      value: 0
      objectReference: {fileID: 0}
    - target: {fileID: 3558827820166088653, guid: 158fa6c4eba9248bcb5da0f371eae3cb, type: 3}
      propertyPath: m_AnchorMin.y
      value: 0
      objectReference: {fileID: 0}
    - target: {fileID: 3558827820166088653, guid: 158fa6c4eba9248bcb5da0f371eae3cb, type: 3}
      propertyPath: m_AnchoredPosition.x
      value: 0
      objectReference: {fileID: 0}
    - target: {fileID: 3558827820166088653, guid: 158fa6c4eba9248bcb5da0f371eae3cb, type: 3}
      propertyPath: m_AnchoredPosition.y
      value: 0
      objectReference: {fileID: 0}
    - target: {fileID: 3646263780007619638, guid: 158fa6c4eba9248bcb5da0f371eae3cb, type: 3}
      propertyPath: m_AnchorMax.y
      value: 0
      objectReference: {fileID: 0}
    - target: {fileID: 3646263780007619638, guid: 158fa6c4eba9248bcb5da0f371eae3cb, type: 3}
      propertyPath: m_AnchorMin.y
      value: 0
      objectReference: {fileID: 0}
    - target: {fileID: 3646263780007619638, guid: 158fa6c4eba9248bcb5da0f371eae3cb, type: 3}
      propertyPath: m_SizeDelta.x
      value: 0
      objectReference: {fileID: 0}
    - target: {fileID: 3646263780007619638, guid: 158fa6c4eba9248bcb5da0f371eae3cb, type: 3}
      propertyPath: m_SizeDelta.y
      value: 0
      objectReference: {fileID: 0}
    - target: {fileID: 3646263780007619638, guid: 158fa6c4eba9248bcb5da0f371eae3cb, type: 3}
      propertyPath: m_AnchoredPosition.x
      value: 0
      objectReference: {fileID: 0}
    - target: {fileID: 3646263780007619638, guid: 158fa6c4eba9248bcb5da0f371eae3cb, type: 3}
      propertyPath: m_AnchoredPosition.y
      value: 0
      objectReference: {fileID: 0}
    - target: {fileID: 3798991397369246507, guid: 158fa6c4eba9248bcb5da0f371eae3cb, type: 3}
      propertyPath: m_AnchorMax.y
      value: 0
      objectReference: {fileID: 0}
    - target: {fileID: 3798991397369246507, guid: 158fa6c4eba9248bcb5da0f371eae3cb, type: 3}
      propertyPath: m_AnchorMin.y
      value: 0
      objectReference: {fileID: 0}
    - target: {fileID: 3798991397369246507, guid: 158fa6c4eba9248bcb5da0f371eae3cb, type: 3}
      propertyPath: m_SizeDelta.x
      value: 0
      objectReference: {fileID: 0}
    - target: {fileID: 3798991397369246507, guid: 158fa6c4eba9248bcb5da0f371eae3cb, type: 3}
      propertyPath: m_SizeDelta.y
      value: 0
      objectReference: {fileID: 0}
    - target: {fileID: 3798991397369246507, guid: 158fa6c4eba9248bcb5da0f371eae3cb, type: 3}
      propertyPath: m_AnchoredPosition.x
      value: 0
      objectReference: {fileID: 0}
    - target: {fileID: 3798991397369246507, guid: 158fa6c4eba9248bcb5da0f371eae3cb, type: 3}
      propertyPath: m_AnchoredPosition.y
      value: 0
      objectReference: {fileID: 0}
    - target: {fileID: 3815707904167900175, guid: 158fa6c4eba9248bcb5da0f371eae3cb, type: 3}
      propertyPath: m_AnchorMax.y
      value: 0
      objectReference: {fileID: 0}
    - target: {fileID: 3815707904167900175, guid: 158fa6c4eba9248bcb5da0f371eae3cb, type: 3}
      propertyPath: m_AnchorMin.y
      value: 0
      objectReference: {fileID: 0}
    - target: {fileID: 3815707904167900175, guid: 158fa6c4eba9248bcb5da0f371eae3cb, type: 3}
      propertyPath: m_SizeDelta.x
      value: 0
      objectReference: {fileID: 0}
    - target: {fileID: 3815707904167900175, guid: 158fa6c4eba9248bcb5da0f371eae3cb, type: 3}
      propertyPath: m_SizeDelta.y
      value: 0
      objectReference: {fileID: 0}
    - target: {fileID: 3815707904167900175, guid: 158fa6c4eba9248bcb5da0f371eae3cb, type: 3}
      propertyPath: m_AnchoredPosition.x
      value: 0
      objectReference: {fileID: 0}
    - target: {fileID: 3815707904167900175, guid: 158fa6c4eba9248bcb5da0f371eae3cb, type: 3}
      propertyPath: m_AnchoredPosition.y
      value: 0
      objectReference: {fileID: 0}
    - target: {fileID: 3824699198135716554, guid: 158fa6c4eba9248bcb5da0f371eae3cb, type: 3}
      propertyPath: m_AnchorMax.y
      value: 0
      objectReference: {fileID: 0}
    - target: {fileID: 3824699198135716554, guid: 158fa6c4eba9248bcb5da0f371eae3cb, type: 3}
      propertyPath: m_AnchorMin.y
      value: 0
      objectReference: {fileID: 0}
    - target: {fileID: 3824699198135716554, guid: 158fa6c4eba9248bcb5da0f371eae3cb, type: 3}
      propertyPath: m_SizeDelta.x
      value: 0
      objectReference: {fileID: 0}
    - target: {fileID: 3824699198135716554, guid: 158fa6c4eba9248bcb5da0f371eae3cb, type: 3}
      propertyPath: m_SizeDelta.y
      value: 0
      objectReference: {fileID: 0}
    - target: {fileID: 3824699198135716554, guid: 158fa6c4eba9248bcb5da0f371eae3cb, type: 3}
      propertyPath: m_AnchoredPosition.x
      value: 0
      objectReference: {fileID: 0}
    - target: {fileID: 3824699198135716554, guid: 158fa6c4eba9248bcb5da0f371eae3cb, type: 3}
      propertyPath: m_AnchoredPosition.y
      value: 0
      objectReference: {fileID: 0}
    - target: {fileID: 3826070193369521033, guid: 158fa6c4eba9248bcb5da0f371eae3cb, type: 3}
      propertyPath: m_AnchorMax.y
      value: 0
      objectReference: {fileID: 0}
    - target: {fileID: 3826070193369521033, guid: 158fa6c4eba9248bcb5da0f371eae3cb, type: 3}
      propertyPath: m_AnchorMin.y
      value: 0
      objectReference: {fileID: 0}
    - target: {fileID: 3826070193369521033, guid: 158fa6c4eba9248bcb5da0f371eae3cb, type: 3}
      propertyPath: m_SizeDelta.x
      value: 0
      objectReference: {fileID: 0}
    - target: {fileID: 3826070193369521033, guid: 158fa6c4eba9248bcb5da0f371eae3cb, type: 3}
      propertyPath: m_SizeDelta.y
      value: 0
      objectReference: {fileID: 0}
    - target: {fileID: 3826070193369521033, guid: 158fa6c4eba9248bcb5da0f371eae3cb, type: 3}
      propertyPath: m_AnchoredPosition.x
      value: 0
      objectReference: {fileID: 0}
    - target: {fileID: 3826070193369521033, guid: 158fa6c4eba9248bcb5da0f371eae3cb, type: 3}
      propertyPath: m_AnchoredPosition.y
      value: 0
      objectReference: {fileID: 0}
    - target: {fileID: 3944344365786634266, guid: 158fa6c4eba9248bcb5da0f371eae3cb, type: 3}
      propertyPath: m_AnchorMax.y
      value: 0
      objectReference: {fileID: 0}
    - target: {fileID: 3944344365786634266, guid: 158fa6c4eba9248bcb5da0f371eae3cb, type: 3}
      propertyPath: m_AnchorMin.y
      value: 0
      objectReference: {fileID: 0}
    - target: {fileID: 3944344365786634266, guid: 158fa6c4eba9248bcb5da0f371eae3cb, type: 3}
      propertyPath: m_SizeDelta.x
      value: 0
      objectReference: {fileID: 0}
    - target: {fileID: 3944344365786634266, guid: 158fa6c4eba9248bcb5da0f371eae3cb, type: 3}
      propertyPath: m_AnchoredPosition.x
      value: 0
      objectReference: {fileID: 0}
    - target: {fileID: 3944344365786634266, guid: 158fa6c4eba9248bcb5da0f371eae3cb, type: 3}
      propertyPath: m_AnchoredPosition.y
      value: 0
      objectReference: {fileID: 0}
    - target: {fileID: 3957978366874370151, guid: 158fa6c4eba9248bcb5da0f371eae3cb, type: 3}
      propertyPath: m_AnchorMax.y
      value: 0
      objectReference: {fileID: 0}
    - target: {fileID: 3957978366874370151, guid: 158fa6c4eba9248bcb5da0f371eae3cb, type: 3}
      propertyPath: m_AnchorMin.y
      value: 0
      objectReference: {fileID: 0}
    - target: {fileID: 3957978366874370151, guid: 158fa6c4eba9248bcb5da0f371eae3cb, type: 3}
      propertyPath: m_AnchoredPosition.y
      value: 0
      objectReference: {fileID: 0}
    - target: {fileID: 4204165471465048794, guid: 158fa6c4eba9248bcb5da0f371eae3cb, type: 3}
      propertyPath: m_AnchorMax.y
      value: 0
      objectReference: {fileID: 0}
    - target: {fileID: 4204165471465048794, guid: 158fa6c4eba9248bcb5da0f371eae3cb, type: 3}
      propertyPath: m_AnchorMin.y
      value: 0
      objectReference: {fileID: 0}
    - target: {fileID: 4204165471465048794, guid: 158fa6c4eba9248bcb5da0f371eae3cb, type: 3}
      propertyPath: m_SizeDelta.x
      value: 0
      objectReference: {fileID: 0}
    - target: {fileID: 4204165471465048794, guid: 158fa6c4eba9248bcb5da0f371eae3cb, type: 3}
      propertyPath: m_AnchoredPosition.x
      value: 0
      objectReference: {fileID: 0}
    - target: {fileID: 4204165471465048794, guid: 158fa6c4eba9248bcb5da0f371eae3cb, type: 3}
      propertyPath: m_AnchoredPosition.y
      value: 0
      objectReference: {fileID: 0}
    - target: {fileID: 4312721471099970355, guid: 158fa6c4eba9248bcb5da0f371eae3cb, type: 3}
      propertyPath: m_AnchorMax.y
      value: 0
      objectReference: {fileID: 0}
    - target: {fileID: 4312721471099970355, guid: 158fa6c4eba9248bcb5da0f371eae3cb, type: 3}
      propertyPath: m_AnchorMin.y
      value: 0
      objectReference: {fileID: 0}
    - target: {fileID: 4312721471099970355, guid: 158fa6c4eba9248bcb5da0f371eae3cb, type: 3}
      propertyPath: m_SizeDelta.x
      value: 0
      objectReference: {fileID: 0}
    - target: {fileID: 4312721471099970355, guid: 158fa6c4eba9248bcb5da0f371eae3cb, type: 3}
      propertyPath: m_SizeDelta.y
      value: 0
      objectReference: {fileID: 0}
    - target: {fileID: 4312721471099970355, guid: 158fa6c4eba9248bcb5da0f371eae3cb, type: 3}
      propertyPath: m_AnchoredPosition.x
      value: 0
      objectReference: {fileID: 0}
    - target: {fileID: 4312721471099970355, guid: 158fa6c4eba9248bcb5da0f371eae3cb, type: 3}
      propertyPath: m_AnchoredPosition.y
      value: 0
      objectReference: {fileID: 0}
    - target: {fileID: 4312721471157411960, guid: 158fa6c4eba9248bcb5da0f371eae3cb, type: 3}
      propertyPath: m_AnchorMax.y
      value: 0
      objectReference: {fileID: 0}
    - target: {fileID: 4312721471157411960, guid: 158fa6c4eba9248bcb5da0f371eae3cb, type: 3}
      propertyPath: m_AnchorMin.y
      value: 0
      objectReference: {fileID: 0}
    - target: {fileID: 4312721471157411960, guid: 158fa6c4eba9248bcb5da0f371eae3cb, type: 3}
      propertyPath: m_AnchoredPosition.x
      value: 0
      objectReference: {fileID: 0}
    - target: {fileID: 4312721471163858809, guid: 158fa6c4eba9248bcb5da0f371eae3cb, type: 3}
      propertyPath: m_AnchorMax.y
      value: 0
      objectReference: {fileID: 0}
    - target: {fileID: 4312721471163858809, guid: 158fa6c4eba9248bcb5da0f371eae3cb, type: 3}
      propertyPath: m_AnchorMin.y
      value: 0
      objectReference: {fileID: 0}
    - target: {fileID: 4312721471163858809, guid: 158fa6c4eba9248bcb5da0f371eae3cb, type: 3}
      propertyPath: m_SizeDelta.x
      value: 0
      objectReference: {fileID: 0}
    - target: {fileID: 4312721471163858809, guid: 158fa6c4eba9248bcb5da0f371eae3cb, type: 3}
      propertyPath: m_SizeDelta.y
      value: 0
      objectReference: {fileID: 0}
    - target: {fileID: 4312721471163858809, guid: 158fa6c4eba9248bcb5da0f371eae3cb, type: 3}
      propertyPath: m_AnchoredPosition.x
      value: 0
      objectReference: {fileID: 0}
    - target: {fileID: 4312721471163858809, guid: 158fa6c4eba9248bcb5da0f371eae3cb, type: 3}
      propertyPath: m_AnchoredPosition.y
      value: 0
      objectReference: {fileID: 0}
    - target: {fileID: 4312721471547318736, guid: 158fa6c4eba9248bcb5da0f371eae3cb, type: 3}
      propertyPath: m_AnchorMax.y
      value: 0
      objectReference: {fileID: 0}
    - target: {fileID: 4312721471547318736, guid: 158fa6c4eba9248bcb5da0f371eae3cb, type: 3}
      propertyPath: m_AnchorMin.y
      value: 0
      objectReference: {fileID: 0}
    - target: {fileID: 4312721471547318736, guid: 158fa6c4eba9248bcb5da0f371eae3cb, type: 3}
      propertyPath: m_SizeDelta.x
      value: 0
      objectReference: {fileID: 0}
    - target: {fileID: 4312721471547318736, guid: 158fa6c4eba9248bcb5da0f371eae3cb, type: 3}
      propertyPath: m_SizeDelta.y
      value: 0
      objectReference: {fileID: 0}
    - target: {fileID: 4312721471547318736, guid: 158fa6c4eba9248bcb5da0f371eae3cb, type: 3}
      propertyPath: m_AnchoredPosition.x
      value: 0
      objectReference: {fileID: 0}
    - target: {fileID: 4312721471547318736, guid: 158fa6c4eba9248bcb5da0f371eae3cb, type: 3}
      propertyPath: m_AnchoredPosition.y
      value: 0
      objectReference: {fileID: 0}
    - target: {fileID: 4312721471673073315, guid: 158fa6c4eba9248bcb5da0f371eae3cb, type: 3}
      propertyPath: m_AnchorMax.y
      value: 0
      objectReference: {fileID: 0}
    - target: {fileID: 4312721471673073315, guid: 158fa6c4eba9248bcb5da0f371eae3cb, type: 3}
      propertyPath: m_AnchorMin.y
      value: 0
      objectReference: {fileID: 0}
    - target: {fileID: 4312721471673073315, guid: 158fa6c4eba9248bcb5da0f371eae3cb, type: 3}
      propertyPath: m_SizeDelta.x
      value: 0
      objectReference: {fileID: 0}
    - target: {fileID: 4312721471673073315, guid: 158fa6c4eba9248bcb5da0f371eae3cb, type: 3}
      propertyPath: m_SizeDelta.y
      value: 0
      objectReference: {fileID: 0}
    - target: {fileID: 4312721471673073315, guid: 158fa6c4eba9248bcb5da0f371eae3cb, type: 3}
      propertyPath: m_AnchoredPosition.x
      value: 0
      objectReference: {fileID: 0}
    - target: {fileID: 4312721471673073315, guid: 158fa6c4eba9248bcb5da0f371eae3cb, type: 3}
      propertyPath: m_AnchoredPosition.y
      value: 0
      objectReference: {fileID: 0}
    - target: {fileID: 4312721472241026361, guid: 158fa6c4eba9248bcb5da0f371eae3cb, type: 3}
      propertyPath: m_SizeDelta.y
      value: 0
      objectReference: {fileID: 0}
    - target: {fileID: 4312721472976073452, guid: 158fa6c4eba9248bcb5da0f371eae3cb, type: 3}
      propertyPath: m_AnchorMax.y
      value: 0
      objectReference: {fileID: 0}
    - target: {fileID: 4312721472976073452, guid: 158fa6c4eba9248bcb5da0f371eae3cb, type: 3}
      propertyPath: m_AnchorMin.y
      value: 0
      objectReference: {fileID: 0}
    - target: {fileID: 4312721472976073452, guid: 158fa6c4eba9248bcb5da0f371eae3cb, type: 3}
      propertyPath: m_SizeDelta.x
      value: 0
      objectReference: {fileID: 0}
    - target: {fileID: 4312721472976073452, guid: 158fa6c4eba9248bcb5da0f371eae3cb, type: 3}
      propertyPath: m_AnchoredPosition.x
      value: 0
      objectReference: {fileID: 0}
    - target: {fileID: 4312721472976073452, guid: 158fa6c4eba9248bcb5da0f371eae3cb, type: 3}
      propertyPath: m_AnchoredPosition.y
      value: 0
      objectReference: {fileID: 0}
    - target: {fileID: 4312721473162077352, guid: 158fa6c4eba9248bcb5da0f371eae3cb, type: 3}
      propertyPath: m_AnchorMax.y
      value: 0
      objectReference: {fileID: 0}
    - target: {fileID: 4312721473162077352, guid: 158fa6c4eba9248bcb5da0f371eae3cb, type: 3}
      propertyPath: m_AnchorMin.y
      value: 0
      objectReference: {fileID: 0}
    - target: {fileID: 4312721473162077352, guid: 158fa6c4eba9248bcb5da0f371eae3cb, type: 3}
      propertyPath: m_SizeDelta.x
      value: 0
      objectReference: {fileID: 0}
    - target: {fileID: 4312721473162077352, guid: 158fa6c4eba9248bcb5da0f371eae3cb, type: 3}
      propertyPath: m_SizeDelta.y
      value: 0
      objectReference: {fileID: 0}
    - target: {fileID: 4312721473162077352, guid: 158fa6c4eba9248bcb5da0f371eae3cb, type: 3}
      propertyPath: m_AnchoredPosition.x
      value: 0
      objectReference: {fileID: 0}
    - target: {fileID: 4312721473162077352, guid: 158fa6c4eba9248bcb5da0f371eae3cb, type: 3}
      propertyPath: m_AnchoredPosition.y
      value: 0
      objectReference: {fileID: 0}
    - target: {fileID: 4364051808364200177, guid: 158fa6c4eba9248bcb5da0f371eae3cb, type: 3}
      propertyPath: m_SizeDelta.x
      value: 0
      objectReference: {fileID: 0}
    - target: {fileID: 4599123268877191547, guid: 158fa6c4eba9248bcb5da0f371eae3cb, type: 3}
      propertyPath: m_AnchorMax.y
      value: 0
      objectReference: {fileID: 0}
    - target: {fileID: 4599123268877191547, guid: 158fa6c4eba9248bcb5da0f371eae3cb, type: 3}
      propertyPath: m_AnchorMin.y
      value: 0
      objectReference: {fileID: 0}
    - target: {fileID: 4599123268877191547, guid: 158fa6c4eba9248bcb5da0f371eae3cb, type: 3}
      propertyPath: m_SizeDelta.x
      value: 0
      objectReference: {fileID: 0}
    - target: {fileID: 4599123268877191547, guid: 158fa6c4eba9248bcb5da0f371eae3cb, type: 3}
      propertyPath: m_SizeDelta.y
      value: 0
      objectReference: {fileID: 0}
    - target: {fileID: 4599123268877191547, guid: 158fa6c4eba9248bcb5da0f371eae3cb, type: 3}
      propertyPath: m_AnchoredPosition.x
      value: 0
      objectReference: {fileID: 0}
    - target: {fileID: 4599123268877191547, guid: 158fa6c4eba9248bcb5da0f371eae3cb, type: 3}
      propertyPath: m_AnchoredPosition.y
      value: 0
      objectReference: {fileID: 0}
    - target: {fileID: 4932166982220010840, guid: 158fa6c4eba9248bcb5da0f371eae3cb, type: 3}
      propertyPath: m_AnchorMax.y
      value: 0
      objectReference: {fileID: 0}
    - target: {fileID: 4932166982220010840, guid: 158fa6c4eba9248bcb5da0f371eae3cb, type: 3}
      propertyPath: m_AnchorMin.y
      value: 0
      objectReference: {fileID: 0}
    - target: {fileID: 4932166982220010840, guid: 158fa6c4eba9248bcb5da0f371eae3cb, type: 3}
      propertyPath: m_SizeDelta.x
      value: 0
      objectReference: {fileID: 0}
    - target: {fileID: 4932166982220010840, guid: 158fa6c4eba9248bcb5da0f371eae3cb, type: 3}
      propertyPath: m_AnchoredPosition.x
      value: 0
      objectReference: {fileID: 0}
    - target: {fileID: 4932166982220010840, guid: 158fa6c4eba9248bcb5da0f371eae3cb, type: 3}
      propertyPath: m_AnchoredPosition.y
      value: 0
      objectReference: {fileID: 0}
    - target: {fileID: 5032883859910701918, guid: 158fa6c4eba9248bcb5da0f371eae3cb, type: 3}
      propertyPath: m_AnchorMax.y
      value: 0
      objectReference: {fileID: 0}
    - target: {fileID: 5032883859910701918, guid: 158fa6c4eba9248bcb5da0f371eae3cb, type: 3}
      propertyPath: m_AnchorMin.y
      value: 0
      objectReference: {fileID: 0}
    - target: {fileID: 5032883859910701918, guid: 158fa6c4eba9248bcb5da0f371eae3cb, type: 3}
      propertyPath: m_SizeDelta.x
      value: 0
      objectReference: {fileID: 0}
    - target: {fileID: 5032883859910701918, guid: 158fa6c4eba9248bcb5da0f371eae3cb, type: 3}
      propertyPath: m_SizeDelta.y
      value: 0
      objectReference: {fileID: 0}
    - target: {fileID: 5032883859910701918, guid: 158fa6c4eba9248bcb5da0f371eae3cb, type: 3}
      propertyPath: m_AnchoredPosition.x
      value: 0
      objectReference: {fileID: 0}
    - target: {fileID: 5032883859910701918, guid: 158fa6c4eba9248bcb5da0f371eae3cb, type: 3}
      propertyPath: m_AnchoredPosition.y
      value: 0
      objectReference: {fileID: 0}
    - target: {fileID: 5081113514172825539, guid: 158fa6c4eba9248bcb5da0f371eae3cb, type: 3}
      propertyPath: m_AnchorMax.y
      value: 0
      objectReference: {fileID: 0}
    - target: {fileID: 5081113514172825539, guid: 158fa6c4eba9248bcb5da0f371eae3cb, type: 3}
      propertyPath: m_AnchorMin.y
      value: 0
      objectReference: {fileID: 0}
    - target: {fileID: 5081113514172825539, guid: 158fa6c4eba9248bcb5da0f371eae3cb, type: 3}
      propertyPath: m_SizeDelta.x
      value: 0
      objectReference: {fileID: 0}
    - target: {fileID: 5081113514172825539, guid: 158fa6c4eba9248bcb5da0f371eae3cb, type: 3}
      propertyPath: m_SizeDelta.y
      value: 0
      objectReference: {fileID: 0}
    - target: {fileID: 5081113514172825539, guid: 158fa6c4eba9248bcb5da0f371eae3cb, type: 3}
      propertyPath: m_AnchoredPosition.x
      value: 0
      objectReference: {fileID: 0}
    - target: {fileID: 5081113514172825539, guid: 158fa6c4eba9248bcb5da0f371eae3cb, type: 3}
      propertyPath: m_AnchoredPosition.y
      value: 0
      objectReference: {fileID: 0}
    - target: {fileID: 5126819357588739579, guid: 158fa6c4eba9248bcb5da0f371eae3cb, type: 3}
      propertyPath: m_AnchorMax.y
      value: 0
      objectReference: {fileID: 0}
    - target: {fileID: 5126819357588739579, guid: 158fa6c4eba9248bcb5da0f371eae3cb, type: 3}
      propertyPath: m_AnchorMin.y
      value: 0
      objectReference: {fileID: 0}
    - target: {fileID: 5126819357588739579, guid: 158fa6c4eba9248bcb5da0f371eae3cb, type: 3}
      propertyPath: m_SizeDelta.x
      value: 0
      objectReference: {fileID: 0}
    - target: {fileID: 5126819357588739579, guid: 158fa6c4eba9248bcb5da0f371eae3cb, type: 3}
      propertyPath: m_SizeDelta.y
      value: 0
      objectReference: {fileID: 0}
    - target: {fileID: 5126819357588739579, guid: 158fa6c4eba9248bcb5da0f371eae3cb, type: 3}
      propertyPath: m_AnchoredPosition.x
      value: 0
      objectReference: {fileID: 0}
    - target: {fileID: 5126819357588739579, guid: 158fa6c4eba9248bcb5da0f371eae3cb, type: 3}
      propertyPath: m_AnchoredPosition.y
      value: 0
      objectReference: {fileID: 0}
    - target: {fileID: 5250324164584332460, guid: 158fa6c4eba9248bcb5da0f371eae3cb, type: 3}
      propertyPath: m_AnchorMax.y
      value: 0
      objectReference: {fileID: 0}
    - target: {fileID: 5250324164584332460, guid: 158fa6c4eba9248bcb5da0f371eae3cb, type: 3}
      propertyPath: m_AnchorMin.y
      value: 0
      objectReference: {fileID: 0}
    - target: {fileID: 5250324164584332460, guid: 158fa6c4eba9248bcb5da0f371eae3cb, type: 3}
      propertyPath: m_SizeDelta.x
      value: 0
      objectReference: {fileID: 0}
    - target: {fileID: 5250324164584332460, guid: 158fa6c4eba9248bcb5da0f371eae3cb, type: 3}
      propertyPath: m_SizeDelta.y
      value: 0
      objectReference: {fileID: 0}
    - target: {fileID: 5250324164584332460, guid: 158fa6c4eba9248bcb5da0f371eae3cb, type: 3}
      propertyPath: m_AnchoredPosition.x
      value: 0
      objectReference: {fileID: 0}
    - target: {fileID: 5250324164584332460, guid: 158fa6c4eba9248bcb5da0f371eae3cb, type: 3}
      propertyPath: m_AnchoredPosition.y
      value: 0
      objectReference: {fileID: 0}
    - target: {fileID: 5621237917183750038, guid: 158fa6c4eba9248bcb5da0f371eae3cb, type: 3}
      propertyPath: m_AnchorMax.y
      value: 0
      objectReference: {fileID: 0}
    - target: {fileID: 5621237917183750038, guid: 158fa6c4eba9248bcb5da0f371eae3cb, type: 3}
      propertyPath: m_AnchorMin.y
      value: 0
      objectReference: {fileID: 0}
    - target: {fileID: 5621237917183750038, guid: 158fa6c4eba9248bcb5da0f371eae3cb, type: 3}
      propertyPath: m_SizeDelta.x
      value: 0
      objectReference: {fileID: 0}
    - target: {fileID: 5621237917183750038, guid: 158fa6c4eba9248bcb5da0f371eae3cb, type: 3}
      propertyPath: m_AnchoredPosition.x
      value: 0
      objectReference: {fileID: 0}
    - target: {fileID: 5621237917183750038, guid: 158fa6c4eba9248bcb5da0f371eae3cb, type: 3}
      propertyPath: m_AnchoredPosition.y
      value: 0
      objectReference: {fileID: 0}
    - target: {fileID: 5801240180785424184, guid: 158fa6c4eba9248bcb5da0f371eae3cb, type: 3}
      propertyPath: m_AnchorMax.y
      value: 0
      objectReference: {fileID: 0}
    - target: {fileID: 5801240180785424184, guid: 158fa6c4eba9248bcb5da0f371eae3cb, type: 3}
      propertyPath: m_AnchorMin.y
      value: 0
      objectReference: {fileID: 0}
    - target: {fileID: 5801240180785424184, guid: 158fa6c4eba9248bcb5da0f371eae3cb, type: 3}
      propertyPath: m_SizeDelta.x
      value: 0
      objectReference: {fileID: 0}
    - target: {fileID: 5801240180785424184, guid: 158fa6c4eba9248bcb5da0f371eae3cb, type: 3}
      propertyPath: m_SizeDelta.y
      value: 0
      objectReference: {fileID: 0}
    - target: {fileID: 5801240180785424184, guid: 158fa6c4eba9248bcb5da0f371eae3cb, type: 3}
      propertyPath: m_AnchoredPosition.x
      value: 0
      objectReference: {fileID: 0}
    - target: {fileID: 5801240180785424184, guid: 158fa6c4eba9248bcb5da0f371eae3cb, type: 3}
      propertyPath: m_AnchoredPosition.y
      value: 0
      objectReference: {fileID: 0}
    - target: {fileID: 5956887553776182264, guid: 158fa6c4eba9248bcb5da0f371eae3cb, type: 3}
      propertyPath: m_SizeDelta.x
      value: 0
      objectReference: {fileID: 0}
    - target: {fileID: 5986169495170466565, guid: 158fa6c4eba9248bcb5da0f371eae3cb, type: 3}
      propertyPath: m_AnchorMax.x
      value: 0
      objectReference: {fileID: 0}
    - target: {fileID: 5986169495170466565, guid: 158fa6c4eba9248bcb5da0f371eae3cb, type: 3}
      propertyPath: m_AnchorMax.y
      value: 0
      objectReference: {fileID: 0}
    - target: {fileID: 6431875463711710308, guid: 158fa6c4eba9248bcb5da0f371eae3cb, type: 3}
      propertyPath: m_AnchorMax.y
      value: 0
      objectReference: {fileID: 0}
    - target: {fileID: 6431875463711710308, guid: 158fa6c4eba9248bcb5da0f371eae3cb, type: 3}
      propertyPath: m_AnchorMin.y
      value: 0
      objectReference: {fileID: 0}
    - target: {fileID: 6431875463711710308, guid: 158fa6c4eba9248bcb5da0f371eae3cb, type: 3}
      propertyPath: m_AnchoredPosition.x
      value: 0
      objectReference: {fileID: 0}
    - target: {fileID: 6431875463711710308, guid: 158fa6c4eba9248bcb5da0f371eae3cb, type: 3}
      propertyPath: m_AnchoredPosition.y
      value: 0
      objectReference: {fileID: 0}
    - target: {fileID: 6452206521222806417, guid: 158fa6c4eba9248bcb5da0f371eae3cb, type: 3}
      propertyPath: m_SizeDelta.y
      value: 0
      objectReference: {fileID: 0}
    - target: {fileID: 6452206521222806417, guid: 158fa6c4eba9248bcb5da0f371eae3cb, type: 3}
      propertyPath: m_AnchoredPosition.x
      value: 0
      objectReference: {fileID: 0}
    - target: {fileID: 6452206521222806417, guid: 158fa6c4eba9248bcb5da0f371eae3cb, type: 3}
      propertyPath: m_AnchoredPosition.y
      value: 0
      objectReference: {fileID: 0}
    - target: {fileID: 6758719326354504014, guid: 158fa6c4eba9248bcb5da0f371eae3cb, type: 3}
      propertyPath: m_AnchorMax.y
      value: 0
      objectReference: {fileID: 0}
    - target: {fileID: 6758719326354504014, guid: 158fa6c4eba9248bcb5da0f371eae3cb, type: 3}
      propertyPath: m_AnchorMin.y
      value: 0
      objectReference: {fileID: 0}
    - target: {fileID: 6758719326354504014, guid: 158fa6c4eba9248bcb5da0f371eae3cb, type: 3}
      propertyPath: m_AnchoredPosition.x
      value: 0
      objectReference: {fileID: 0}
    - target: {fileID: 6827967831503925377, guid: 158fa6c4eba9248bcb5da0f371eae3cb, type: 3}
      propertyPath: m_AnchorMax.y
      value: 0
      objectReference: {fileID: 0}
    - target: {fileID: 6827967831503925377, guid: 158fa6c4eba9248bcb5da0f371eae3cb, type: 3}
      propertyPath: m_AnchorMin.y
      value: 0
      objectReference: {fileID: 0}
    - target: {fileID: 6827967831503925377, guid: 158fa6c4eba9248bcb5da0f371eae3cb, type: 3}
      propertyPath: m_SizeDelta.x
      value: 0
      objectReference: {fileID: 0}
    - target: {fileID: 6827967831503925377, guid: 158fa6c4eba9248bcb5da0f371eae3cb, type: 3}
      propertyPath: m_SizeDelta.y
      value: 0
      objectReference: {fileID: 0}
    - target: {fileID: 6827967831503925377, guid: 158fa6c4eba9248bcb5da0f371eae3cb, type: 3}
      propertyPath: m_AnchoredPosition.x
      value: 0
      objectReference: {fileID: 0}
    - target: {fileID: 6827967831503925377, guid: 158fa6c4eba9248bcb5da0f371eae3cb, type: 3}
      propertyPath: m_AnchoredPosition.y
      value: 0
      objectReference: {fileID: 0}
    - target: {fileID: 6845518161306139812, guid: 158fa6c4eba9248bcb5da0f371eae3cb, type: 3}
      propertyPath: m_AnchorMax.y
      value: 0
      objectReference: {fileID: 0}
    - target: {fileID: 6845518161306139812, guid: 158fa6c4eba9248bcb5da0f371eae3cb, type: 3}
      propertyPath: m_AnchorMin.y
      value: 0
      objectReference: {fileID: 0}
    - target: {fileID: 6845518161306139812, guid: 158fa6c4eba9248bcb5da0f371eae3cb, type: 3}
      propertyPath: m_SizeDelta.x
      value: 0
      objectReference: {fileID: 0}
    - target: {fileID: 6845518161306139812, guid: 158fa6c4eba9248bcb5da0f371eae3cb, type: 3}
      propertyPath: m_SizeDelta.y
      value: 0
      objectReference: {fileID: 0}
    - target: {fileID: 6845518161306139812, guid: 158fa6c4eba9248bcb5da0f371eae3cb, type: 3}
      propertyPath: m_AnchoredPosition.x
      value: 0
      objectReference: {fileID: 0}
    - target: {fileID: 6845518161306139812, guid: 158fa6c4eba9248bcb5da0f371eae3cb, type: 3}
      propertyPath: m_AnchoredPosition.y
      value: 0
      objectReference: {fileID: 0}
    - target: {fileID: 6896163904890242925, guid: 158fa6c4eba9248bcb5da0f371eae3cb, type: 3}
      propertyPath: m_AnchorMax.y
      value: 0
      objectReference: {fileID: 0}
    - target: {fileID: 6896163904890242925, guid: 158fa6c4eba9248bcb5da0f371eae3cb, type: 3}
      propertyPath: m_AnchorMin.y
      value: 0
      objectReference: {fileID: 0}
    - target: {fileID: 6896163904890242925, guid: 158fa6c4eba9248bcb5da0f371eae3cb, type: 3}
      propertyPath: m_SizeDelta.x
      value: 0
      objectReference: {fileID: 0}
    - target: {fileID: 6896163904890242925, guid: 158fa6c4eba9248bcb5da0f371eae3cb, type: 3}
      propertyPath: m_SizeDelta.y
      value: 0
      objectReference: {fileID: 0}
    - target: {fileID: 6896163904890242925, guid: 158fa6c4eba9248bcb5da0f371eae3cb, type: 3}
      propertyPath: m_AnchoredPosition.x
      value: 98
      objectReference: {fileID: 0}
    - target: {fileID: 6896163904890242925, guid: 158fa6c4eba9248bcb5da0f371eae3cb, type: 3}
      propertyPath: m_AnchoredPosition.y
      value: 0
      objectReference: {fileID: 0}
    - target: {fileID: 7081759737641014757, guid: 158fa6c4eba9248bcb5da0f371eae3cb, type: 3}
      propertyPath: _scenes.Array.size
      value: 0
      objectReference: {fileID: 0}
    - target: {fileID: 7081759737641014757, guid: 158fa6c4eba9248bcb5da0f371eae3cb, type: 3}
      propertyPath: _scenes.Array.data[0]
      value: 
      objectReference: {fileID: 0}
    - target: {fileID: 7192281361003415035, guid: 158fa6c4eba9248bcb5da0f371eae3cb, type: 3}
      propertyPath: m_SizeDelta.x
      value: 0
      objectReference: {fileID: 0}
    - target: {fileID: 7192281361388597946, guid: 158fa6c4eba9248bcb5da0f371eae3cb, type: 3}
      propertyPath: m_SizeDelta.x
      value: 0
      objectReference: {fileID: 0}
    - target: {fileID: 7192281361388597946, guid: 158fa6c4eba9248bcb5da0f371eae3cb, type: 3}
      propertyPath: m_AnchoredPosition.y
      value: 0
      objectReference: {fileID: 0}
    - target: {fileID: 7192281361524631500, guid: 158fa6c4eba9248bcb5da0f371eae3cb, type: 3}
      propertyPath: m_Size
      value: 1
      objectReference: {fileID: 0}
    - target: {fileID: 7192281361705784932, guid: 158fa6c4eba9248bcb5da0f371eae3cb, type: 3}
      propertyPath: m_RootOrder
      value: 0
      objectReference: {fileID: 0}
    - target: {fileID: 7192281361705784932, guid: 158fa6c4eba9248bcb5da0f371eae3cb, type: 3}
      propertyPath: m_LocalPosition.x
      value: 0
      objectReference: {fileID: 0}
    - target: {fileID: 7192281361705784932, guid: 158fa6c4eba9248bcb5da0f371eae3cb, type: 3}
      propertyPath: m_LocalPosition.y
      value: 0
      objectReference: {fileID: 0}
    - target: {fileID: 7192281361705784932, guid: 158fa6c4eba9248bcb5da0f371eae3cb, type: 3}
      propertyPath: m_LocalPosition.z
      value: 0
      objectReference: {fileID: 0}
    - target: {fileID: 7192281361705784932, guid: 158fa6c4eba9248bcb5da0f371eae3cb, type: 3}
      propertyPath: m_LocalRotation.w
      value: 1
      objectReference: {fileID: 0}
    - target: {fileID: 7192281361705784932, guid: 158fa6c4eba9248bcb5da0f371eae3cb, type: 3}
      propertyPath: m_LocalRotation.x
      value: 0
      objectReference: {fileID: 0}
    - target: {fileID: 7192281361705784932, guid: 158fa6c4eba9248bcb5da0f371eae3cb, type: 3}
      propertyPath: m_LocalRotation.y
      value: 0
      objectReference: {fileID: 0}
    - target: {fileID: 7192281361705784932, guid: 158fa6c4eba9248bcb5da0f371eae3cb, type: 3}
      propertyPath: m_LocalRotation.z
      value: 0
      objectReference: {fileID: 0}
    - target: {fileID: 7192281361705784932, guid: 158fa6c4eba9248bcb5da0f371eae3cb, type: 3}
      propertyPath: m_LocalEulerAnglesHint.x
      value: 0
      objectReference: {fileID: 0}
    - target: {fileID: 7192281361705784932, guid: 158fa6c4eba9248bcb5da0f371eae3cb, type: 3}
      propertyPath: m_LocalEulerAnglesHint.y
      value: 0
      objectReference: {fileID: 0}
    - target: {fileID: 7192281361705784932, guid: 158fa6c4eba9248bcb5da0f371eae3cb, type: 3}
      propertyPath: m_LocalEulerAnglesHint.z
      value: 0
      objectReference: {fileID: 0}
    - target: {fileID: 7192281361705784933, guid: 158fa6c4eba9248bcb5da0f371eae3cb, type: 3}
      propertyPath: m_Name
      value: amand master
      objectReference: {fileID: 0}
    - target: {fileID: 7192281361705784935, guid: 158fa6c4eba9248bcb5da0f371eae3cb, type: 3}
      propertyPath: structure
      value: 
      objectReference: {fileID: 1837763443}
    - target: {fileID: 7192281361890347310, guid: 158fa6c4eba9248bcb5da0f371eae3cb, type: 3}
      propertyPath: m_AnchorMax.x
      value: 0
      objectReference: {fileID: 0}
    - target: {fileID: 7192281361890347310, guid: 158fa6c4eba9248bcb5da0f371eae3cb, type: 3}
      propertyPath: m_AnchorMax.y
      value: 0
      objectReference: {fileID: 0}
    - target: {fileID: 7192281361890347310, guid: 158fa6c4eba9248bcb5da0f371eae3cb, type: 3}
      propertyPath: m_AnchorMin.x
      value: 0
      objectReference: {fileID: 0}
    - target: {fileID: 7192281362563502235, guid: 158fa6c4eba9248bcb5da0f371eae3cb, type: 3}
      propertyPath: m_AnchorMax.y
      value: 0
      objectReference: {fileID: 0}
    - target: {fileID: 7192281362563502235, guid: 158fa6c4eba9248bcb5da0f371eae3cb, type: 3}
      propertyPath: m_AnchorMin.y
      value: 0
      objectReference: {fileID: 0}
    - target: {fileID: 7192281362563502235, guid: 158fa6c4eba9248bcb5da0f371eae3cb, type: 3}
      propertyPath: m_AnchoredPosition.x
      value: 0
      objectReference: {fileID: 0}
    - target: {fileID: 7192281362563502235, guid: 158fa6c4eba9248bcb5da0f371eae3cb, type: 3}
      propertyPath: m_AnchoredPosition.y
      value: 0
      objectReference: {fileID: 0}
    - target: {fileID: 7192281362593250766, guid: 158fa6c4eba9248bcb5da0f371eae3cb, type: 3}
      propertyPath: m_AnchorMax.y
      value: 0
      objectReference: {fileID: 0}
    - target: {fileID: 7192281362593250766, guid: 158fa6c4eba9248bcb5da0f371eae3cb, type: 3}
      propertyPath: m_AnchorMin.y
      value: 0
      objectReference: {fileID: 0}
    - target: {fileID: 7192281362593250766, guid: 158fa6c4eba9248bcb5da0f371eae3cb, type: 3}
      propertyPath: m_AnchoredPosition.x
      value: 0
      objectReference: {fileID: 0}
    - target: {fileID: 7192281362593250766, guid: 158fa6c4eba9248bcb5da0f371eae3cb, type: 3}
      propertyPath: m_AnchoredPosition.y
      value: 0
      objectReference: {fileID: 0}
    - target: {fileID: 7235404165798927438, guid: 158fa6c4eba9248bcb5da0f371eae3cb, type: 3}
      propertyPath: m_AnchorMax.y
      value: 0
      objectReference: {fileID: 0}
    - target: {fileID: 7235404165798927438, guid: 158fa6c4eba9248bcb5da0f371eae3cb, type: 3}
      propertyPath: m_AnchorMin.y
      value: 0
      objectReference: {fileID: 0}
    - target: {fileID: 7235404165798927438, guid: 158fa6c4eba9248bcb5da0f371eae3cb, type: 3}
      propertyPath: m_SizeDelta.x
      value: 0
      objectReference: {fileID: 0}
    - target: {fileID: 7235404165798927438, guid: 158fa6c4eba9248bcb5da0f371eae3cb, type: 3}
      propertyPath: m_AnchoredPosition.x
      value: 0
      objectReference: {fileID: 0}
    - target: {fileID: 7235404165798927438, guid: 158fa6c4eba9248bcb5da0f371eae3cb, type: 3}
      propertyPath: m_AnchoredPosition.y
      value: 0
      objectReference: {fileID: 0}
    - target: {fileID: 7332888548539365960, guid: 158fa6c4eba9248bcb5da0f371eae3cb, type: 3}
      propertyPath: m_AnchorMax.y
      value: 0
      objectReference: {fileID: 0}
    - target: {fileID: 7332888548539365960, guid: 158fa6c4eba9248bcb5da0f371eae3cb, type: 3}
      propertyPath: m_AnchorMin.y
      value: 0
      objectReference: {fileID: 0}
    - target: {fileID: 7332888548539365960, guid: 158fa6c4eba9248bcb5da0f371eae3cb, type: 3}
      propertyPath: m_SizeDelta.x
      value: 0
      objectReference: {fileID: 0}
    - target: {fileID: 7332888548539365960, guid: 158fa6c4eba9248bcb5da0f371eae3cb, type: 3}
      propertyPath: m_SizeDelta.y
      value: 0
      objectReference: {fileID: 0}
    - target: {fileID: 7332888548539365960, guid: 158fa6c4eba9248bcb5da0f371eae3cb, type: 3}
      propertyPath: m_AnchoredPosition.x
      value: 0
      objectReference: {fileID: 0}
    - target: {fileID: 7332888548539365960, guid: 158fa6c4eba9248bcb5da0f371eae3cb, type: 3}
      propertyPath: m_AnchoredPosition.y
      value: 0
      objectReference: {fileID: 0}
    - target: {fileID: 7392799173281904341, guid: 158fa6c4eba9248bcb5da0f371eae3cb, type: 3}
      propertyPath: m_AnchorMax.y
      value: 0
      objectReference: {fileID: 0}
    - target: {fileID: 7392799173281904341, guid: 158fa6c4eba9248bcb5da0f371eae3cb, type: 3}
      propertyPath: m_AnchorMin.y
      value: 0
      objectReference: {fileID: 0}
    - target: {fileID: 7392799173281904341, guid: 158fa6c4eba9248bcb5da0f371eae3cb, type: 3}
      propertyPath: m_SizeDelta.x
      value: 0
      objectReference: {fileID: 0}
    - target: {fileID: 7392799173281904341, guid: 158fa6c4eba9248bcb5da0f371eae3cb, type: 3}
      propertyPath: m_SizeDelta.y
      value: 0
      objectReference: {fileID: 0}
    - target: {fileID: 7392799173281904341, guid: 158fa6c4eba9248bcb5da0f371eae3cb, type: 3}
      propertyPath: m_AnchoredPosition.x
      value: 0
      objectReference: {fileID: 0}
    - target: {fileID: 7392799173281904341, guid: 158fa6c4eba9248bcb5da0f371eae3cb, type: 3}
      propertyPath: m_AnchoredPosition.y
      value: 0
      objectReference: {fileID: 0}
    - target: {fileID: 7439345662595800301, guid: 158fa6c4eba9248bcb5da0f371eae3cb, type: 3}
      propertyPath: m_AnchorMax.y
      value: 0
      objectReference: {fileID: 0}
    - target: {fileID: 7439345662595800301, guid: 158fa6c4eba9248bcb5da0f371eae3cb, type: 3}
      propertyPath: m_AnchorMin.y
      value: 0
      objectReference: {fileID: 0}
    - target: {fileID: 7439345662595800301, guid: 158fa6c4eba9248bcb5da0f371eae3cb, type: 3}
      propertyPath: m_SizeDelta.x
      value: 0
      objectReference: {fileID: 0}
    - target: {fileID: 7439345662595800301, guid: 158fa6c4eba9248bcb5da0f371eae3cb, type: 3}
      propertyPath: m_SizeDelta.y
      value: 0
      objectReference: {fileID: 0}
    - target: {fileID: 7439345662595800301, guid: 158fa6c4eba9248bcb5da0f371eae3cb, type: 3}
      propertyPath: m_AnchoredPosition.x
      value: 0
      objectReference: {fileID: 0}
    - target: {fileID: 7439345662595800301, guid: 158fa6c4eba9248bcb5da0f371eae3cb, type: 3}
      propertyPath: m_AnchoredPosition.y
      value: 0
      objectReference: {fileID: 0}
    - target: {fileID: 7506619477824646322, guid: 158fa6c4eba9248bcb5da0f371eae3cb, type: 3}
      propertyPath: m_AnchorMax.y
      value: 0
      objectReference: {fileID: 0}
    - target: {fileID: 7506619477824646322, guid: 158fa6c4eba9248bcb5da0f371eae3cb, type: 3}
      propertyPath: m_AnchorMin.y
      value: 0
      objectReference: {fileID: 0}
    - target: {fileID: 7506619477824646322, guid: 158fa6c4eba9248bcb5da0f371eae3cb, type: 3}
      propertyPath: m_AnchoredPosition.y
      value: 0
      objectReference: {fileID: 0}
    - target: {fileID: 7550043426868368826, guid: 158fa6c4eba9248bcb5da0f371eae3cb, type: 3}
      propertyPath: m_AnchorMax.y
      value: 0
      objectReference: {fileID: 0}
    - target: {fileID: 7550043426868368826, guid: 158fa6c4eba9248bcb5da0f371eae3cb, type: 3}
      propertyPath: m_AnchorMin.y
      value: 0
      objectReference: {fileID: 0}
    - target: {fileID: 7550043426868368826, guid: 158fa6c4eba9248bcb5da0f371eae3cb, type: 3}
      propertyPath: m_SizeDelta.x
      value: 0
      objectReference: {fileID: 0}
    - target: {fileID: 7550043426868368826, guid: 158fa6c4eba9248bcb5da0f371eae3cb, type: 3}
      propertyPath: m_SizeDelta.y
      value: 0
      objectReference: {fileID: 0}
    - target: {fileID: 7550043426868368826, guid: 158fa6c4eba9248bcb5da0f371eae3cb, type: 3}
      propertyPath: m_AnchoredPosition.x
      value: 0
      objectReference: {fileID: 0}
    - target: {fileID: 7550043426868368826, guid: 158fa6c4eba9248bcb5da0f371eae3cb, type: 3}
      propertyPath: m_AnchoredPosition.y
      value: 0
      objectReference: {fileID: 0}
    - target: {fileID: 7702974801684042859, guid: 158fa6c4eba9248bcb5da0f371eae3cb, type: 3}
      propertyPath: m_AnchorMax.y
      value: 0
      objectReference: {fileID: 0}
    - target: {fileID: 7702974801684042859, guid: 158fa6c4eba9248bcb5da0f371eae3cb, type: 3}
      propertyPath: m_AnchorMin.y
      value: 0
      objectReference: {fileID: 0}
    - target: {fileID: 7702974801684042859, guid: 158fa6c4eba9248bcb5da0f371eae3cb, type: 3}
      propertyPath: m_AnchoredPosition.x
      value: 0
      objectReference: {fileID: 0}
    - target: {fileID: 7702974801684042859, guid: 158fa6c4eba9248bcb5da0f371eae3cb, type: 3}
      propertyPath: m_AnchoredPosition.y
      value: 0
      objectReference: {fileID: 0}
    - target: {fileID: 7702974802149151518, guid: 158fa6c4eba9248bcb5da0f371eae3cb, type: 3}
      propertyPath: m_AnchorMax.y
      value: 0
      objectReference: {fileID: 0}
    - target: {fileID: 7702974802149151518, guid: 158fa6c4eba9248bcb5da0f371eae3cb, type: 3}
      propertyPath: m_AnchorMin.y
      value: 0
      objectReference: {fileID: 0}
    - target: {fileID: 7702974802149151518, guid: 158fa6c4eba9248bcb5da0f371eae3cb, type: 3}
      propertyPath: m_AnchoredPosition.x
      value: 0
      objectReference: {fileID: 0}
    - target: {fileID: 7702974802149151518, guid: 158fa6c4eba9248bcb5da0f371eae3cb, type: 3}
      propertyPath: m_AnchoredPosition.y
      value: 0
      objectReference: {fileID: 0}
    - target: {fileID: 7933482609772881536, guid: 158fa6c4eba9248bcb5da0f371eae3cb, type: 3}
      propertyPath: m_AnchorMax.y
      value: 0
      objectReference: {fileID: 0}
    - target: {fileID: 7933482609772881536, guid: 158fa6c4eba9248bcb5da0f371eae3cb, type: 3}
      propertyPath: m_AnchorMin.y
      value: 0
      objectReference: {fileID: 0}
    - target: {fileID: 7933482609772881536, guid: 158fa6c4eba9248bcb5da0f371eae3cb, type: 3}
      propertyPath: m_SizeDelta.x
      value: 0
      objectReference: {fileID: 0}
    - target: {fileID: 7933482609772881536, guid: 158fa6c4eba9248bcb5da0f371eae3cb, type: 3}
      propertyPath: m_AnchoredPosition.x
      value: 0
      objectReference: {fileID: 0}
    - target: {fileID: 7933482609772881536, guid: 158fa6c4eba9248bcb5da0f371eae3cb, type: 3}
      propertyPath: m_AnchoredPosition.y
      value: 0
      objectReference: {fileID: 0}
    - target: {fileID: 8113770505888198190, guid: 158fa6c4eba9248bcb5da0f371eae3cb, type: 3}
      propertyPath: m_AnchorMax.y
      value: 0
      objectReference: {fileID: 0}
    - target: {fileID: 8113770505888198190, guid: 158fa6c4eba9248bcb5da0f371eae3cb, type: 3}
      propertyPath: m_AnchorMin.y
      value: 0
      objectReference: {fileID: 0}
    - target: {fileID: 8113770505888198190, guid: 158fa6c4eba9248bcb5da0f371eae3cb, type: 3}
      propertyPath: m_SizeDelta.x
      value: 0
      objectReference: {fileID: 0}
    - target: {fileID: 8113770505888198190, guid: 158fa6c4eba9248bcb5da0f371eae3cb, type: 3}
      propertyPath: m_SizeDelta.y
      value: 0
      objectReference: {fileID: 0}
    - target: {fileID: 8113770505888198190, guid: 158fa6c4eba9248bcb5da0f371eae3cb, type: 3}
      propertyPath: m_AnchoredPosition.x
      value: 0
      objectReference: {fileID: 0}
    - target: {fileID: 8113770505888198190, guid: 158fa6c4eba9248bcb5da0f371eae3cb, type: 3}
      propertyPath: m_AnchoredPosition.y
      value: 0
      objectReference: {fileID: 0}
    - target: {fileID: 8264351431829990126, guid: 158fa6c4eba9248bcb5da0f371eae3cb, type: 3}
      propertyPath: m_SizeDelta.x
      value: 0
      objectReference: {fileID: 0}
    - target: {fileID: 8289129155117419027, guid: 158fa6c4eba9248bcb5da0f371eae3cb, type: 3}
      propertyPath: m_AnchorMax.x
      value: 0
      objectReference: {fileID: 0}
    - target: {fileID: 8289129155117419027, guid: 158fa6c4eba9248bcb5da0f371eae3cb, type: 3}
      propertyPath: m_AnchorMax.y
      value: 0
      objectReference: {fileID: 0}
    - target: {fileID: 8723833542936754881, guid: 158fa6c4eba9248bcb5da0f371eae3cb, type: 3}
      propertyPath: m_AnchorMax.y
      value: 0
      objectReference: {fileID: 0}
    - target: {fileID: 8723833542936754881, guid: 158fa6c4eba9248bcb5da0f371eae3cb, type: 3}
      propertyPath: m_AnchorMin.y
      value: 0
      objectReference: {fileID: 0}
    - target: {fileID: 8723833542936754881, guid: 158fa6c4eba9248bcb5da0f371eae3cb, type: 3}
      propertyPath: m_SizeDelta.x
      value: 0
      objectReference: {fileID: 0}
    - target: {fileID: 8723833542936754881, guid: 158fa6c4eba9248bcb5da0f371eae3cb, type: 3}
      propertyPath: m_SizeDelta.y
      value: 0
      objectReference: {fileID: 0}
    - target: {fileID: 8723833542936754881, guid: 158fa6c4eba9248bcb5da0f371eae3cb, type: 3}
      propertyPath: m_AnchoredPosition.x
      value: 0
      objectReference: {fileID: 0}
    - target: {fileID: 8723833542936754881, guid: 158fa6c4eba9248bcb5da0f371eae3cb, type: 3}
      propertyPath: m_AnchoredPosition.y
      value: 0
      objectReference: {fileID: 0}
    - target: {fileID: 8759806773071737479, guid: 158fa6c4eba9248bcb5da0f371eae3cb, type: 3}
      propertyPath: m_SizeDelta.y
      value: 0
      objectReference: {fileID: 0}
    - target: {fileID: 8759806773071737479, guid: 158fa6c4eba9248bcb5da0f371eae3cb, type: 3}
      propertyPath: m_AnchoredPosition.x
      value: 0
      objectReference: {fileID: 0}
    - target: {fileID: 8759806773071737479, guid: 158fa6c4eba9248bcb5da0f371eae3cb, type: 3}
      propertyPath: m_AnchoredPosition.y
      value: 0
      objectReference: {fileID: 0}
    - target: {fileID: 9065756044673462360, guid: 158fa6c4eba9248bcb5da0f371eae3cb, type: 3}
      propertyPath: m_AnchorMax.y
      value: 0
      objectReference: {fileID: 0}
    - target: {fileID: 9065756044673462360, guid: 158fa6c4eba9248bcb5da0f371eae3cb, type: 3}
      propertyPath: m_AnchorMin.y
      value: 0
      objectReference: {fileID: 0}
    - target: {fileID: 9065756044673462360, guid: 158fa6c4eba9248bcb5da0f371eae3cb, type: 3}
      propertyPath: m_AnchoredPosition.x
      value: 0
      objectReference: {fileID: 0}
    - target: {fileID: 9140639203328276887, guid: 158fa6c4eba9248bcb5da0f371eae3cb, type: 3}
      propertyPath: m_AnchorMax.y
      value: 0
      objectReference: {fileID: 0}
    - target: {fileID: 9140639203328276887, guid: 158fa6c4eba9248bcb5da0f371eae3cb, type: 3}
      propertyPath: m_AnchorMin.y
      value: 0
      objectReference: {fileID: 0}
    - target: {fileID: 9140639203328276887, guid: 158fa6c4eba9248bcb5da0f371eae3cb, type: 3}
      propertyPath: m_SizeDelta.x
      value: 0
      objectReference: {fileID: 0}
    - target: {fileID: 9140639203328276887, guid: 158fa6c4eba9248bcb5da0f371eae3cb, type: 3}
      propertyPath: m_SizeDelta.y
      value: 0
      objectReference: {fileID: 0}
    - target: {fileID: 9140639203328276887, guid: 158fa6c4eba9248bcb5da0f371eae3cb, type: 3}
      propertyPath: m_AnchoredPosition.x
      value: 0
      objectReference: {fileID: 0}
    - target: {fileID: 9140639203328276887, guid: 158fa6c4eba9248bcb5da0f371eae3cb, type: 3}
      propertyPath: m_AnchoredPosition.y
      value: 0
      objectReference: {fileID: 0}
    - target: {fileID: 9159169369804305842, guid: 158fa6c4eba9248bcb5da0f371eae3cb, type: 3}
      propertyPath: m_AnchorMax.y
      value: 0
      objectReference: {fileID: 0}
    - target: {fileID: 9159169369804305842, guid: 158fa6c4eba9248bcb5da0f371eae3cb, type: 3}
      propertyPath: m_AnchorMin.y
      value: 0
      objectReference: {fileID: 0}
    - target: {fileID: 9159169369804305842, guid: 158fa6c4eba9248bcb5da0f371eae3cb, type: 3}
      propertyPath: m_SizeDelta.x
      value: 0
      objectReference: {fileID: 0}
    - target: {fileID: 9159169369804305842, guid: 158fa6c4eba9248bcb5da0f371eae3cb, type: 3}
      propertyPath: m_SizeDelta.y
      value: 0
      objectReference: {fileID: 0}
    - target: {fileID: 9159169369804305842, guid: 158fa6c4eba9248bcb5da0f371eae3cb, type: 3}
      propertyPath: m_AnchoredPosition.x
      value: 0
      objectReference: {fileID: 0}
    - target: {fileID: 9159169369804305842, guid: 158fa6c4eba9248bcb5da0f371eae3cb, type: 3}
      propertyPath: m_AnchoredPosition.y
      value: 0
      objectReference: {fileID: 0}
    - target: {fileID: 9200813308052721275, guid: 158fa6c4eba9248bcb5da0f371eae3cb, type: 3}
      propertyPath: m_AnchorMax.y
      value: 0
      objectReference: {fileID: 0}
    - target: {fileID: 9200813308052721275, guid: 158fa6c4eba9248bcb5da0f371eae3cb, type: 3}
      propertyPath: m_AnchorMin.y
      value: 0
      objectReference: {fileID: 0}
    - target: {fileID: 9200813308052721275, guid: 158fa6c4eba9248bcb5da0f371eae3cb, type: 3}
      propertyPath: m_SizeDelta.x
      value: 0
      objectReference: {fileID: 0}
    - target: {fileID: 9200813308052721275, guid: 158fa6c4eba9248bcb5da0f371eae3cb, type: 3}
      propertyPath: m_SizeDelta.y
      value: 0
      objectReference: {fileID: 0}
    - target: {fileID: 9200813308052721275, guid: 158fa6c4eba9248bcb5da0f371eae3cb, type: 3}
      propertyPath: m_AnchoredPosition.x
      value: 98
      objectReference: {fileID: 0}
    - target: {fileID: 9200813308052721275, guid: 158fa6c4eba9248bcb5da0f371eae3cb, type: 3}
      propertyPath: m_AnchoredPosition.y
      value: 0
      objectReference: {fileID: 0}
    m_RemovedComponents: []
  m_SourcePrefab: {fileID: 100100000, guid: 158fa6c4eba9248bcb5da0f371eae3cb, type: 3}
--- !u!1001 &8670811091383525541
PrefabInstance:
  m_ObjectHideFlags: 0
  serializedVersion: 2
  m_Modification:
    m_TransformParent: {fileID: 0}
    m_Modifications:
    - target: {fileID: 8670811090425473724, guid: 73927c31e85a743658514bafed0add2d, type: 3}
      propertyPath: m_RootOrder
      value: 1
      objectReference: {fileID: 0}
    - target: {fileID: 8670811090425473724, guid: 73927c31e85a743658514bafed0add2d, type: 3}
      propertyPath: m_LocalPosition.x
      value: -1019.76337
      objectReference: {fileID: 0}
    - target: {fileID: 8670811090425473724, guid: 73927c31e85a743658514bafed0add2d, type: 3}
      propertyPath: m_LocalPosition.y
      value: -416.03595
      objectReference: {fileID: 0}
    - target: {fileID: 8670811090425473724, guid: 73927c31e85a743658514bafed0add2d, type: 3}
      propertyPath: m_LocalPosition.z
      value: -1929.1395
      objectReference: {fileID: 0}
    - target: {fileID: 8670811090425473724, guid: 73927c31e85a743658514bafed0add2d, type: 3}
      propertyPath: m_LocalRotation.w
      value: 1
      objectReference: {fileID: 0}
    - target: {fileID: 8670811090425473724, guid: 73927c31e85a743658514bafed0add2d, type: 3}
      propertyPath: m_LocalRotation.x
      value: 0
      objectReference: {fileID: 0}
    - target: {fileID: 8670811090425473724, guid: 73927c31e85a743658514bafed0add2d, type: 3}
      propertyPath: m_LocalRotation.y
      value: 0
      objectReference: {fileID: 0}
    - target: {fileID: 8670811090425473724, guid: 73927c31e85a743658514bafed0add2d, type: 3}
      propertyPath: m_LocalRotation.z
      value: 0
      objectReference: {fileID: 0}
    - target: {fileID: 8670811090425473724, guid: 73927c31e85a743658514bafed0add2d, type: 3}
      propertyPath: m_LocalEulerAnglesHint.x
      value: 0
      objectReference: {fileID: 0}
    - target: {fileID: 8670811090425473724, guid: 73927c31e85a743658514bafed0add2d, type: 3}
      propertyPath: m_LocalEulerAnglesHint.y
      value: 0
      objectReference: {fileID: 0}
    - target: {fileID: 8670811090425473724, guid: 73927c31e85a743658514bafed0add2d, type: 3}
      propertyPath: m_LocalEulerAnglesHint.z
      value: 0
      objectReference: {fileID: 0}
    - target: {fileID: 8670811090425473725, guid: 73927c31e85a743658514bafed0add2d, type: 3}
      propertyPath: m_Name
      value: content
      objectReference: {fileID: 0}
    m_RemovedComponents: []
  m_SourcePrefab: {fileID: 100100000, guid: 73927c31e85a743658514bafed0add2d, type: 3}
