%YAML 1.1
%TAG !u! tag:unity3d.com,2011:
--- !u!1 &9076767550341480422
GameObject:
  m_ObjectHideFlags: 0
  m_CorrespondingSourceObject: {fileID: 0}
  m_PrefabInstance: {fileID: 0}
  m_PrefabAsset: {fileID: 0}
  serializedVersion: 6
  m_Component:
  - component: {fileID: 9076767550341480423}
  - component: {fileID: 9076767550341480420}
  m_Layer: 0
  m_Name: order scene
  m_TagString: Untagged
  m_Icon: {fileID: 0}
  m_NavMeshLayer: 0
  m_StaticEditorFlags: 0
  m_IsActive: 1
--- !u!4 &9076767550341480423
Transform:
  m_ObjectHideFlags: 0
  m_CorrespondingSourceObject: {fileID: 0}
  m_PrefabInstance: {fileID: 0}
  m_PrefabAsset: {fileID: 0}
  m_GameObject: {fileID: 9076767550341480422}
  m_LocalRotation: {x: 0, y: 0, z: 0, w: 1}
  m_LocalPosition: {x: 0, y: 0, z: 0}
  m_LocalScale: {x: 1, y: 1, z: 1}
  m_ConstrainProportionsScale: 0
  m_Children: []
  m_Father: {fileID: 0}
  m_RootOrder: 0
  m_LocalEulerAnglesHint: {x: 0, y: 0, z: 0}
--- !u!114 &9076767550341480420
MonoBehaviour:
  m_ObjectHideFlags: 0
  m_CorrespondingSourceObject: {fileID: 0}
  m_PrefabInstance: {fileID: 0}
  m_PrefabAsset: {fileID: 0}
  m_GameObject: {fileID: 9076767550341480422}
  m_Enabled: 1
  m_EditorHideFlags: 0
  m_Script: {fileID: 11500000, guid: a3e578125b8f34566aecca4118496258, type: 3}
  m_Name:
  m_EditorClassIdentifier:
  referenced: {fileID: 0}
  type: 4
  text: 'Lorem ipsum dolor sit amet, consectetur adipisici elit, sed eiusmod tempor
    incidunt ut labore et dolore magna aliqua. Ut enim ad minim veniam, quis nostrud
    exercitation ullamco laboris nisi ut aliquid ex ea commodi consequat. Quis aute
    iure reprehenderit in voluptate velit esse cillum dolore eu fugiat nulla pariatur.
    Excepteur sint obcaecat cupiditat non proident, sunt in culpa qui officia deserunt
    mollit anim id est laborum.


    --


    Duis autem vel eum iriure dolor in
    hendrerit in vulputate velit esse molestie consequat, vel illum dolore eu feugiat
    nulla facilisis at vero eros et accumsan et iusto odio dignissim qui blandit
    praesent luptatum zzril delenit augue duis dolore te feugait nulla facilisi.
    Lorem ipsum dolor sit amet, consectetuer adipiscing elit, sed diam nonummy nibh
    euismod tincidunt ut laoreet dolore magna aliquam erat volutpat.


    Ut wisi
    enim ad minim veniam, quis nostrud exerci tation ullamcorper suscipit lobortis
    nisl ut aliquip ex ea commodo consequat. Duis autem vel eum iriure dolor in hendrerit
    in vulputate velit esse molestie consequat, vel illum dolore eu feugiat nulla
    facilisis at vero eros et accumsan et iusto odio dignissim qui blandit praesent
    luptatum zzril delenit augue duis dolore te feugait nulla facilisi.


    Nam
    liber tempor cum soluta nobis eleifend option congue nihil imperdiet doming id
    quod mazim placerat facer possim assum. Lorem ipsum dolor sit amet, consectetuer
    adipiscing elit, sed diam nonummy nibh euismod tincidunt ut laoreet dolore magna
    aliquam erat volutpat. Ut wisi enim ad minim veniam, quis nostrud exerci tation
    ullamcorper suscipit lobortis nisl ut aliquip ex ea commodo consequat.


    Duis
    autem vel eum iriure dolor in hendrerit in vulputate velit esse molestie consequat,
    vel illum dolore eu feugiat nulla facilisis.


    At vero eos et accusam et
    justo duo dolores et ea rebum. Stet clita kasd gubergren, no sea takimata sanctus
    est Lorem ipsum dolor sit amet. Lorem ipsum dolor sit amet, consetetur sadipscing
    elitr, sed diam nonumy eirmod tempor invidunt ut labore et dolore magna aliquyam
    erat, sed diam voluptua. At vero eos et accusam et justo duo dolores et ea rebum.
    Stet clita kasd gubergren, no sea takimata sanctus est Lorem ipsum dolor sit
    amet. Lorem ipsum dolor sit amet, consetetur sadipscing elitr, At accusam aliquyam
    diam diam dolore dolores duo eirmod eos erat, et nonumy sed tempor et et invidunt
    justo labore Stet clita ea et gubergren, kasd magna no rebum. sanctus sea sed
    takimata ut vero voluptua. est Lorem ipsum dolor sit amet. Lorem ipsum dolor
    sit amet, consetetur sadipscing elitr, sed diam nonumy eirmod tempor invidunt
    ut labore et dolore magna aliquyam erat.


    Consetetur sadipscing elitr, sed
    diam nonumy eirmod tempor invidunt ut labore et dolore magna aliquyam erat, sed
    diam voluptua. At vero eos et accusam et justo duo dolores et ea rebum. Stet
    clita kasd gubergren, no sea takimata sanctus est Lorem ipsum dolor sit amet.
    Lorem ipsum dolor sit amet, consetetur sadipscing elitr, sed diam nonumy eirmod
    tempor invidunt ut labore et dolore magna aliquyam erat, sed diam voluptua. At
    vero eos et accusam et justo duo dolores et ea rebum. Stet clita kasd gubergren,
    no sea takimata sanctus est Lorem ipsum dolor sit amet. Lorem ipsum dolor sit
    amet, consetetur sadipscing elitr, sed diam nonumy eirmod tempor invidunt ut
    labore et dolore magna aliquyam erat, sed diam voluptua. At vero eos et accusam
    et justo duo dolores et ea rebum. Stet clita kasd gubergren, no sea takimata
    sanctus est Lorem ipsum dolor sit amet.'
  sprite: {fileID: 0}
  hasReferenceText: 0
  hasReferenceImage: 0
  isFullScreenImage: 0
  referenceText: {fileID: 0}
  referenceImage: {fileID: 0}
  hasName: 0
  displayName:
  audio: {fileID: 0}
  scene: {fileID: 0}
  video: {fileID: 0}
